genius,age,old,older,oldest,id,_est_logitnorm,_est_logisticnorm,_est_logitrob,_est_logisticrob,yhat,phat,spresid,devresid,hhat,dfhat
1,13,0,0,0,33,1,1,1,1,-2.1760738,.10191973,2.9807792,2.1370866,.0082612811,.0740133
1,17,0,0,0,13,1,1,1,1,-2.2667868,.093911275,4.4205317,3.0759745,.012507284,.24750169
1,18,0,0,0,23,1,1,1,1,-2.289465,.091999233,4.4689779,3.0893204,.011639109,.23519096
0,20,0,0,0,408,1,1,1,1,-2.3348215,.088279836,.13405108,.12816696,.050262347,.00095099828
0,21,0,0,0,928,1,1,1,1,-2.3574996,.086471505,-1.2355903,-1.6471859,.069978096,.114873
0,22,0,0,0,649,1,1,1,1,-2.3801777,.084696777,.50694144,.46319354,.073555008,.020403665
0,23,0,0,0,715,1,1,1,1,-2.4028561,.082955167,-1.2015532,-1.6118212,.06015088,.092399552
0,24,0,0,0,460,1,1,1,1,-2.4255342,.08124619,-1.2667462,-1.6973689,.063142307,.10814986
0,25,0,0,0,353,1,1,1,1,-2.4482124,.07956937,-1.0846245,-1.4682488,.044700932,.055047307
0,26,0,0,0,182,1,1,1,1,-2.4708908,.077924214,-1.1936034,-1.6112392,.050913643,.076427303
0,27,0,0,0,101,1,1,1,1,-2.4935689,.076310255,-1.3250179,-1.7818983,.058883686,.10984876
1,28,0,0,0,18,1,1,1,1,-2.516247,.074727021,.88140464,.78405893,.040860284,.033095594
0,29,0,0,0,198,1,1,1,1,-2.5389254,.073174022,-1.1473061,-1.559379,.040333878,.055323344
0,30,0,0,0,727,1,1,1,1,-2.5616035,.071650811,-.3845064,-.39558893,.046680178,.0072393739
0,31,0,0,0,132,1,1,1,1,-2.5842817,.070156895,-.92205137,-1.2650167,.023790155,.020718785
0,32,0,0,0,69,1,1,1,1,-2.6069601,.068691835,-.22443812,-.22744678,.036114864,.0018873564
0,33,0,0,0,171,1,1,1,1,-2.6296382,.067255147,2.0819867,1.6895158,.027963966,.12470168
0,34,0,0,0,187,1,1,1,1,-2.6523163,.065846384,-.39323047,-.40711185,.038186379,.0061392016
0,35,0,0,0,610,1,1,1,1,-2.6749945,.064465091,3.2965474,2.5487189,.034024067,.3827706
0,36,0,0,0,641,1,1,1,1,-2.6976728,.063110821,-1.0510017,-1.4443299,.024272041,.027477954
0,37,0,0,0,799,1,1,1,1,-2.720351,.061783116,-.11117639,-.11154097,.025660427,.0003255207
0,38,0,0,0,135,1,1,1,1,-2.7430291,.060481545,.10152122,.098954938,.020180251,.00021227266
1,39,0,0,0,4,1,1,1,1,-2.7657075,.059205659,.55012208,.50036961,.012757586,.0039107748
0,40,0,0,0,590,1,1,1,1,-2.7883856,.05795503,.078573674,.076881409,.019460255,.00012252858
0,41,0,0,0,204,1,1,1,1,-2.8110638,.056729227,-1.1653094,-1.6030232,.025659703,.035762135
0,42,0,0,0,645,1,1,1,1,-2.8337421,.055527821,-.16016324,-.16202682,.02363563,.00062098476
0,43,0,0,0,306,1,1,1,1,-2.8564203,.054350391,-.08677157,-.086935021,.021864908,.0001683076
0,44,0,0,0,612,1,1,1,1,-2.8790984,.053196523,-.011085807,-.010991051,.020312818,2.5481054e-06
0,45,0,0,0,459,1,1,1,1,-2.9017768,.052065805,.2565752,.24445529,.015789011,.0010560781
0,46,0,0,0,674,1,1,1,1,-2.9244549,.050957825,-.80777258,-1.120379,.012519839,.0082727252
0,47,0,0,0,738,1,1,1,1,-2.9471331,.049872182,1.4966724,1.2422001,.015612422,.035526924
0,48,0,0,0,868,1,1,1,1,-2.9698114,.048808482,-.88427854,-1.2252328,.015670728,.012448784
0,49,0,0,0,912,1,1,1,1,-2.9924896,.047766324,.10044882,.097899303,.020037131,.00020630777
0,50,0,0,0,981,1,1,1,1,-3.0151677,.046745326,-.73880887,-1.0262601,.011770652,.0065014013
0,51,0,0,0,579,1,1,1,1,-3.0378461,.045745105,-.91123199,-1.2617574,.018543068,.015688024
0,52,0,0,0,668,1,1,1,1,-3.0605242,.044765282,-.87375426,-1.2105957,.017861784,.013884518
0,53,0,0,0,630,1,1,1,1,-3.0832024,.04380548,.89720231,.79626429,.028662452,.023753298
0,54,0,0,0,73,1,1,1,1,-3.1058807,.042865336,-.82697612,-1.1464447,.017712787,.012332024
0,55,0,0,0,93,1,1,1,1,-3.1285589,.041944481,1.0408324,.86569732,.010972003,.012018187
0,56,0,0,0,559,1,1,1,1,-3.151237,.041042563,-.93708533,-1.2947369,.025219483,.022718918
0,57,0,0,0,120,1,1,1,1,-3.1739154,.040159222,1.0905881,.89812827,.011755371,.014147945
0,58,0,0,0,761,1,1,1,1,-3.1965935,.039294116,-.61045402,-.84945011,.012189324,.0045984536
0,59,0,0,0,238,1,1,1,1,-3.2192717,.0384469,-.63682103,-.88549972,.014053603,.0057805497
0,60,0,0,0,734,1,1,1,1,-3.24195,.037617236,-.74741966,-1.0361489,.020424202,.01164759
0,61,0,0,0,746,1,1,1,1,-3.2646282,.036804788,2.4275563,1.8710856,.03483719,.21270669
0,62,0,0,0,929,1,1,1,1,-3.2873063,.036009233,-.78300369,-1.0833069,.025159918,.015823532
0,63,0,0,0,323,1,1,1,1,-3.3099844,.035230245,.47476524,.43244463,.029378761,.0068224678
0,64,0,0,0,170,1,1,1,1,-3.3326628,.034467503,.38739118,.35740265,.033868484,.0052608876
1,65,1,0,0,1,1,1,1,1,-3.355341,.033720702,2.0517354,1.5692018,.028097693,.12170004
0,66,1,0,0,724,1,1,1,1,-3.3780191,.032989528,1.4803829,1.2103668,.04186013,.095745817
0,67,1,0,0,588,1,1,1,1,-3.4006975,.032273676,.69469565,.60815483,.030159049,.015007429
1,68,1,0,0,44,1,1,1,1,-3.4233756,.031572852,2.0640984,1.5713472,.033162519,.14613518
0,69,1,0,0,933,1,1,1,1,-3.4460537,.03088676,1.5511549,1.1686599,.01613782,.039465796
0,70,1,1,0,694,1,1,1,1,-3.4687321,.030215112,.58246291,.51772976,.039600868,.013989089
0,71,1,1,0,72,1,1,1,1,-3.4914103,.029557625,-.75520259,-1.0392869,.038730126,.022978967
0,72,1,1,0,354,1,1,1,1,-3.5140884,.028914018,-.78940398,-1.0833331,.044386759,.028944757
0,73,1,1,0,98,1,1,1,1,-3.5367668,.028284017,-.84061849,-1.1488338,.052603658,.039235767
0,74,1,1,0,780,1,1,1,1,-3.5594449,.027667351,-.68782216,-.94754088,.037678074,.018523397
0,75,1,1,1,347,1,1,1,1,-3.582123,.027063757,-.70227689,-.96584088,.041182678,.02118339
0,76,1,1,1,168,1,1,1,1,-3.6048014,.026472971,-.69477385,-.95509654,.04232822,.021335373
0,77,1,1,1,831,1,1,1,1,-3.6274796,.025894739,-.66593724,-.91626912,.040910844,.018916732
0,78,1,1,1,275,1,1,1,1,-3.6501577,.025328808,-.72087216,-.98736715,.049846642,.027262064
0,79,1,1,1,454,1,1,1,1,-3.6728361,.024774931,-.65172631,-.89598203,.043032654,.019099917
0,80,1,1,1,291,1,1,1,1,-3.6955142,.024232864,-.45072705,-.626499,.022039518,.0045783399
0,60,0,0,0,821,1,1,1,1,-3.24195,.037617236,-.74741966,-1.0361489,.020424202,.01164759
0,74,1,1,0,274,1,1,1,1,-3.5594449,.027667351,-.68782216,-.94754088,.037678074,.018523397
0,39,0,0,0,902,1,1,1,1,-2.7657075,.059205659,.55012208,.50036961,.012757586,.0039107748
0,30,0,0,0,843,1,1,1,1,-2.5616035,.071650811,-.3845064,-.39558893,.046680178,.0072393739
0,78,1,1,1,700,1,1,1,1,-3.6501577,.025328808,-.72087216,-.98736715,.049846642,.027262064
0,49,0,0,0,443,1,1,1,1,-2.9924896,.047766324,.10044882,.097899303,.020037131,.00020630777
0,28,0,0,0,508,1,1,1,1,-2.516247,.074727021,.88140464,.78405893,.040860284,.033095594
0,55,0,0,0,185,1,1,1,1,-3.1285589,.041944481,1.0408324,.86569732,.010972003,.012018187
0,52,0,0,0,439,1,1,1,1,-3.0605242,.044765282,-.87375426,-1.2105957,.017861784,.013884518
0,43,0,0,0,867,1,1,1,1,-2.8564203,.054350391,-.08677157,-.086935021,.021864908,.0001683076
0,56,0,0,0,623,1,1,1,1,-3.151237,.041042563,-.93708533,-1.2947369,.025219483,.022718918
0,46,0,0,0,945,1,1,1,1,-2.9244549,.050957825,-.80777258,-1.120379,.012519839,.0082727252
0,41,0,0,0,762,1,1,1,1,-2.8110638,.056729227,-1.1653094,-1.6030232,.025659703,.035762135
0,38,0,0,0,774,1,1,1,1,-2.7430291,.060481545,.10152122,.098954938,.020180251,.00021227266
0,72,1,1,0,441,1,1,1,1,-3.5140884,.028914018,-.78940398,-1.0833331,.044386759,.028944757
0,34,0,0,0,778,1,1,1,1,-2.6523163,.065846384,-.39323047,-.40711185,.038186379,.0061392016
0,38,0,0,0,302,1,1,1,1,-2.7430291,.060481545,.10152122,.098954938,.020180251,.00021227266
0,72,1,1,0,555,1,1,1,1,-3.5140884,.028914018,-.78940398,-1.0833331,.044386759,.028944757
0,65,1,0,0,376,1,1,1,1,-3.355341,.033720702,2.0517354,1.5692018,.028097693,.12170004
0,28,0,0,0,926,1,1,1,1,-2.516247,.074727021,.88140464,.78405893,.040860284,.033095594
0,46,0,0,0,442,1,1,1,1,-2.9244549,.050957825,-.80777258,-1.120379,.012519839,.0082727252
0,69,1,0,0,855,1,1,1,1,-3.4460537,.03088676,1.5511549,1.1686599,.01613782,.039465796
0,67,1,0,0,133,1,1,1,1,-3.4006975,.032273676,.69469565,.60815483,.030159049,.015007429
0,38,0,0,0,984,1,1,1,1,-2.7430291,.060481545,.10152122,.098954938,.020180251,.00021227266
0,54,0,0,0,264,1,1,1,1,-3.1058807,.042865336,-.82697612,-1.1464447,.017712787,.012332024
0,51,0,0,0,361,1,1,1,1,-3.0378461,.045745105,-.91123199,-1.2617574,.018543068,.015688024
0,63,0,0,0,334,1,1,1,1,-3.3099844,.035230245,.47476524,.43244463,.029378761,.0068224678
0,60,0,0,0,544,1,1,1,1,-3.24195,.037617236,-.74741966,-1.0361489,.020424202,.01164759
0,59,0,0,0,538,1,1,1,1,-3.2192717,.0384469,-.63682103,-.88549972,.014053603,.0057805497
0,47,0,0,0,546,1,1,1,1,-2.9471331,.049872182,1.4966724,1.2422001,.015612422,.035526924
0,46,0,0,0,104,1,1,1,1,-2.9244549,.050957825,-.80777258,-1.120379,.012519839,.0082727252
0,41,0,0,0,475,1,1,1,1,-2.8110638,.056729227,-1.1653094,-1.6030232,.025659703,.035762135
0,76,1,1,1,89,1,1,1,1,-3.6048014,.026472971,-.69477385,-.95509654,.04232822,.021335373
0,68,1,0,0,844,1,1,1,1,-3.4233756,.031572852,2.0640984,1.5713472,.033162519,.14613518
0,23,0,0,0,411,1,1,1,1,-2.4028561,.082955167,-1.2015532,-1.6118212,.06015088,.092399552
0,58,0,0,0,111,1,1,1,1,-3.1965935,.039294116,-.61045402,-.84945011,.012189324,.0045984536
0,40,0,0,0,436,1,1,1,1,-2.7883856,.05795503,.078573674,.076881409,.019460255,.00012252858
0,54,0,0,0,218,1,1,1,1,-3.1058807,.042865336,-.82697612,-1.1464447,.017712787,.012332024
0,40,0,0,0,516,1,1,1,1,-2.7883856,.05795503,.078573674,.076881409,.019460255,.00012252858
0,40,0,0,0,336,1,1,1,1,-2.7883856,.05795503,.078573674,.076881409,.019460255,.00012252858
0,23,0,0,0,572,1,1,1,1,-2.4028561,.082955167,-1.2015532,-1.6118212,.06015088,.092399552
0,76,1,1,1,845,1,1,1,1,-3.6048014,.026472971,-.69477385,-.95509654,.04232822,.021335373
0,37,0,0,0,208,1,1,1,1,-2.720351,.061783116,-.11117639,-.11154097,.025660427,.0003255207
0,62,0,0,0,993,1,1,1,1,-3.2873063,.036009233,-.78300369,-1.0833069,.025159918,.015823532
0,63,0,0,0,770,1,1,1,1,-3.3099844,.035230245,.47476524,.43244463,.029378761,.0068224678
0,58,0,0,0,971,1,1,1,1,-3.1965935,.039294116,-.61045402,-.84945011,.012189324,.0045984536
0,42,0,0,0,212,1,1,1,1,-2.8337421,.055527821,-.16016324,-.16202682,.02363563,.00062098476
1,57,0,0,0,24,1,1,1,1,-3.1739154,.040159222,1.0905881,.89812827,.011755371,.014147945
0,53,0,0,0,252,1,1,1,1,-3.0832024,.04380548,.89720231,.79626429,.028662452,.023753298
0,78,1,1,1,745,1,1,1,1,-3.6501577,.025328808,-.72087216,-.98736715,.049846642,.027262064
0,76,1,1,1,237,1,1,1,1,-3.6048014,.026472971,-.69477385,-.95509654,.04232822,.021335373
0,36,0,0,0,217,1,1,1,1,-2.6976728,.063110821,-1.0510017,-1.4443299,.024272041,.027477954
0,24,0,0,0,786,1,1,1,1,-2.4255342,.08124619,-1.2667462,-1.6973689,.063142307,.10814986
0,37,0,0,0,693,1,1,1,1,-2.720351,.061783116,-.11117639,-.11154097,.025660427,.0003255207
1,65,1,0,0,38,1,1,1,1,-3.355341,.033720702,2.0517354,1.5692018,.028097693,.12170004
0,37,0,0,0,851,1,1,1,1,-2.720351,.061783116,-.11117639,-.11154097,.025660427,.0003255207
0,30,0,0,0,180,1,1,1,1,-2.5616035,.071650811,-.3845064,-.39558893,.046680178,.0072393739
0,61,0,0,0,393,1,1,1,1,-3.2646282,.036804788,2.4275563,1.8710856,.03483719,.21270669
0,49,0,0,0,747,1,1,1,1,-2.9924896,.047766324,.10044882,.097899303,.020037131,.00020630777
0,35,0,0,0,506,1,1,1,1,-2.6749945,.064465091,3.2965474,2.5487189,.034024067,.3827706
0,76,1,1,1,776,1,1,1,1,-3.6048014,.026472971,-.69477385,-.95509654,.04232822,.021335373
0,63,0,0,0,534,1,1,1,1,-3.3099844,.035230245,.47476524,.43244463,.029378761,.0068224678
0,31,0,0,0,521,1,1,1,1,-2.5842817,.070156895,-.92205137,-1.2650167,.023790155,.020718785
1,44,0,0,0,9,1,1,1,1,-2.8790984,.053196523,-.011085807,-.010991051,.020312818,2.5481054e-06
0,37,0,0,0,269,1,1,1,1,-2.720351,.061783116,-.11117639,-.11154097,.025660427,.0003255207
0,66,1,0,0,197,1,1,1,1,-3.3780191,.032989528,1.4803829,1.2103668,.04186013,.095745817
0,42,0,0,0,159,1,1,1,1,-2.8337421,.055527821,-.16016324,-.16202682,.02363563,.00062098476
0,65,1,0,0,110,1,1,1,1,-3.355341,.033720702,2.0517354,1.5692018,.028097693,.12170004
0,62,0,0,0,236,1,1,1,1,-3.2873063,.036009233,-.78300369,-1.0833069,.025159918,.015823532
0,36,0,0,0,526,1,1,1,1,-2.6976728,.063110821,-1.0510017,-1.4443299,.024272041,.027477954
0,70,1,1,0,874,1,1,1,1,-3.4687321,.030215112,.58246291,.51772976,.039600868,.013989089
0,36,0,0,0,174,1,1,1,1,-2.6976728,.063110821,-1.0510017,-1.4443299,.024272041,.027477954
0,35,0,0,0,124,1,1,1,1,-2.6749945,.064465091,3.2965474,2.5487189,.034024067,.3827706
0,55,0,0,0,535,1,1,1,1,-3.1285589,.041944481,1.0408324,.86569732,.010972003,.012018187
0,56,0,0,0,914,1,1,1,1,-3.151237,.041042563,-.93708533,-1.2947369,.025219483,.022718918
0,36,0,0,0,414,1,1,1,1,-2.6976728,.063110821,-1.0510017,-1.4443299,.024272041,.027477954
0,71,1,1,0,247,1,1,1,1,-3.4914103,.029557625,-.75520259,-1.0392869,.038730126,.022978967
0,52,0,0,0,549,1,1,1,1,-3.0605242,.044765282,-.87375426,-1.2105957,.017861784,.013884518
0,66,1,0,0,118,1,1,1,1,-3.3780191,.032989528,1.4803829,1.2103668,.04186013,.095745817
0,36,0,0,0,349,1,1,1,1,-2.6976728,.063110821,-1.0510017,-1.4443299,.024272041,.027477954
0,41,0,0,0,877,1,1,1,1,-2.8110638,.056729227,-1.1653094,-1.6030232,.025659703,.035762135
0,44,0,0,0,496,1,1,1,1,-2.8790984,.053196523,-.011085807,-.010991051,.020312818,2.5481054e-06
0,24,0,0,0,421,1,1,1,1,-2.4255342,.08124619,-1.2667462,-1.6973689,.063142307,.10814986
0,59,0,0,0,586,1,1,1,1,-3.2192717,.0384469,-.63682103,-.88549972,.014053603,.0057805497
0,24,0,0,0,622,1,1,1,1,-2.4255342,.08124619,-1.2667462,-1.6973689,.063142307,.10814986
0,22,0,0,0,878,1,1,1,1,-2.3801777,.084696777,.50694144,.46319354,.073555008,.020403665
0,48,0,0,0,316,1,1,1,1,-2.9698114,.048808482,-.88427854,-1.2252328,.015670728,.012448784
0,53,0,0,0,492,1,1,1,1,-3.0832024,.04380548,.89720231,.79626429,.028662452,.023753298
0,43,0,0,0,434,1,1,1,1,-2.8564203,.054350391,-.08677157,-.086935021,.021864908,.0001683076
0,43,0,0,0,128,1,1,1,1,-2.8564203,.054350391,-.08677157,-.086935021,.021864908,.0001683076
0,67,1,0,0,150,1,1,1,1,-3.4006975,.032273676,.69469565,.60815483,.030159049,.015007429
0,23,0,0,0,640,1,1,1,1,-2.4028561,.082955167,-1.2015532,-1.6118212,.06015088,.092399552
0,43,0,0,0,282,1,1,1,1,-2.8564203,.054350391,-.08677157,-.086935021,.021864908,.0001683076
0,50,0,0,0,224,1,1,1,1,-3.0151677,.046745326,-.73880887,-1.0262601,.011770652,.0065014013
1,35,0,0,0,41,1,1,1,1,-2.6749945,.064465091,3.2965474,2.5487189,.034024067,.3827706
0,59,0,0,0,818,1,1,1,1,-3.2192717,.0384469,-.63682103,-.88549972,.014053603,.0057805497
0,62,0,0,0,422,1,1,1,1,-3.2873063,.036009233,-.78300369,-1.0833069,.025159918,.015823532
0,72,1,1,0,550,1,1,1,1,-3.5140884,.028914018,-.78940398,-1.0833331,.044386759,.028944757
0,75,1,1,1,728,1,1,1,1,-3.582123,.027063757,-.70227689,-.96584088,.041182678,.02118339
0,41,0,0,0,663,1,1,1,1,-2.8110638,.056729227,-1.1653094,-1.6030232,.025659703,.035762135
0,68,1,0,0,155,1,1,1,1,-3.4233756,.031572852,2.0640984,1.5713472,.033162519,.14613518
0,25,0,0,0,673,1,1,1,1,-2.4482124,.07956937,-1.0846245,-1.4682488,.044700932,.055047307
0,57,0,0,0,920,1,1,1,1,-3.1739154,.040159222,1.0905881,.89812827,.011755371,.014147945
0,56,0,0,0,242,1,1,1,1,-3.151237,.041042563,-.93708533,-1.2947369,.025219483,.022718918
0,49,0,0,0,233,1,1,1,1,-2.9924896,.047766324,.10044882,.097899303,.020037131,.00020630777
0,41,0,0,0,380,1,1,1,1,-2.8110638,.056729227,-1.1653094,-1.6030232,.025659703,.035762135
0,79,1,1,1,913,1,1,1,1,-3.6728361,.024774931,-.65172631,-.89598203,.043032654,.019099917
0,64,0,0,0,865,1,1,1,1,-3.3326628,.034467503,.38739118,.35740265,.033868484,.0052608876
0,41,0,0,0,975,1,1,1,1,-2.8110638,.056729227,-1.1653094,-1.6030232,.025659703,.035762135
0,61,0,0,0,363,1,1,1,1,-3.2646282,.036804788,2.4275563,1.8710856,.03483719,.21270669
0,78,1,1,1,445,1,1,1,1,-3.6501577,.025328808,-.72087216,-.98736715,.049846642,.027262064
0,23,0,0,0,880,1,1,1,1,-2.4028561,.082955167,-1.2015532,-1.6118212,.06015088,.092399552
0,79,1,1,1,634,1,1,1,1,-3.6728361,.024774931,-.65172631,-.89598203,.043032654,.019099917
0,52,0,0,0,814,1,1,1,1,-3.0605242,.044765282,-.87375426,-1.2105957,.017861784,.013884518
1,30,0,0,0,45,1,1,1,1,-2.5616035,.071650811,-.3845064,-.39558893,.046680178,.0072393739
0,67,1,0,0,815,1,1,1,1,-3.4006975,.032273676,.69469565,.60815483,.030159049,.015007429
1,42,0,0,0,42,1,1,1,1,-2.8337421,.055527821,-.16016324,-.16202682,.02363563,.00062098476
0,23,0,0,0,112,1,1,1,1,-2.4028561,.082955167,-1.2015532,-1.6118212,.06015088,.092399552
0,22,0,0,0,927,1,1,1,1,-2.3801777,.084696777,.50694144,.46319354,.073555008,.020403665
0,57,0,0,0,595,1,1,1,1,-3.1739154,.040159222,1.0905881,.89812827,.011755371,.014147945
1,47,0,0,0,30,1,1,1,1,-2.9471331,.049872182,1.4966724,1.2422001,.015612422,.035526924
0,70,1,1,0,879,1,1,1,1,-3.4687321,.030215112,.58246291,.51772976,.039600868,.013989089
0,80,1,1,1,608,1,1,1,1,-3.6955142,.024232864,-.45072705,-.626499,.022039518,.0045783399
0,32,0,0,0,370,1,1,1,1,-2.6069601,.068691835,-.22443812,-.22744678,.036114864,.0018873564
0,56,0,0,0,280,1,1,1,1,-3.151237,.041042563,-.93708533,-1.2947369,.025219483,.022718918
0,76,1,1,1,253,1,1,1,1,-3.6048014,.026472971,-.69477385,-.95509654,.04232822,.021335373
0,42,0,0,0,943,1,1,1,1,-2.8337421,.055527821,-.16016324,-.16202682,.02363563,.00062098476
0,35,0,0,0,257,1,1,1,1,-2.6749945,.064465091,3.2965474,2.5487189,.034024067,.3827706
0,71,1,1,0,385,1,1,1,1,-3.4914103,.029557625,-.75520259,-1.0392869,.038730126,.022978967
0,58,0,0,0,293,1,1,1,1,-3.1965935,.039294116,-.61045402,-.84945011,.012189324,.0045984536
0,66,1,0,0,420,1,1,1,1,-3.3780191,.032989528,1.4803829,1.2103668,.04186013,.095745817
0,74,1,1,0,869,1,1,1,1,-3.5594449,.027667351,-.68782216,-.94754088,.037678074,.018523397
0,30,0,0,0,916,1,1,1,1,-2.5616035,.071650811,-.3845064,-.39558893,.046680178,.0072393739
0,45,0,0,0,730,1,1,1,1,-2.9017768,.052065805,.2565752,.24445529,.015789011,.0010560781
0,40,0,0,0,52,1,1,1,1,-2.7883856,.05795503,.078573674,.076881409,.019460255,.00012252858
0,68,1,0,0,965,1,1,1,1,-3.4233756,.031572852,2.0640984,1.5713472,.033162519,.14613518
0,74,1,1,0,320,1,1,1,1,-3.5594449,.027667351,-.68782216,-.94754088,.037678074,.018523397
0,43,0,0,0,758,1,1,1,1,-2.8564203,.054350391,-.08677157,-.086935021,.021864908,.0001683076
0,54,0,0,0,477,1,1,1,1,-3.1058807,.042865336,-.82697612,-1.1464447,.017712787,.012332024
1,45,0,0,0,25,1,1,1,1,-2.9017768,.052065805,.2565752,.24445529,.015789011,.0010560781
0,43,0,0,0,601,1,1,1,1,-2.8564203,.054350391,-.08677157,-.086935021,.021864908,.0001683076
0,55,0,0,0,980,1,1,1,1,-3.1285589,.041944481,1.0408324,.86569732,.010972003,.012018187
0,60,0,0,0,826,1,1,1,1,-3.24195,.037617236,-.74741966,-1.0361489,.020424202,.01164759
0,32,0,0,0,94,1,1,1,1,-2.6069601,.068691835,-.22443812,-.22744678,.036114864,.0018873564
0,31,0,0,0,991,1,1,1,1,-2.5842817,.070156895,-.92205137,-1.2650167,.023790155,.020718785
0,71,1,1,0,712,1,1,1,1,-3.4914103,.029557625,-.75520259,-1.0392869,.038730126,.022978967
0,48,0,0,0,847,1,1,1,1,-2.9698114,.048808482,-.88427854,-1.2252328,.015670728,.012448784
0,46,0,0,0,594,1,1,1,1,-2.9244549,.050957825,-.80777258,-1.120379,.012519839,.0082727252
0,43,0,0,0,267,1,1,1,1,-2.8564203,.054350391,-.08677157,-.086935021,.021864908,.0001683076
0,73,1,1,0,860,1,1,1,1,-3.5367668,.028284017,-.84061849,-1.1488338,.052603658,.039235767
0,32,0,0,0,837,1,1,1,1,-2.6069601,.068691835,-.22443812,-.22744678,.036114864,.0018873564
0,64,0,0,0,384,1,1,1,1,-3.3326628,.034467503,.38739118,.35740265,.033868484,.0052608876
0,57,0,0,0,656,1,1,1,1,-3.1739154,.040159222,1.0905881,.89812827,.011755371,.014147945
0,37,0,0,0,760,1,1,1,1,-2.720351,.061783116,-.11117639,-.11154097,.025660427,.0003255207
0,22,0,0,0,653,1,1,1,1,-2.3801777,.084696777,.50694144,.46319354,.073555008,.020403665
0,44,0,0,0,527,1,1,1,1,-2.8790984,.053196523,-.011085807,-.010991051,.020312818,2.5481054e-06
0,74,1,1,0,307,1,1,1,1,-3.5594449,.027667351,-.68782216,-.94754088,.037678074,.018523397
0,29,0,0,0,148,1,1,1,1,-2.5389254,.073174022,-1.1473061,-1.559379,.040333878,.055323344
0,31,0,0,0,896,1,1,1,1,-2.5842817,.070156895,-.92205137,-1.2650167,.023790155,.020718785
0,69,1,0,0,806,1,1,1,1,-3.4460537,.03088676,1.5511549,1.1686599,.01613782,.039465796
0,36,0,0,0,509,1,1,1,1,-2.6976728,.063110821,-1.0510017,-1.4443299,.024272041,.027477954
0,68,1,0,0,766,1,1,1,1,-3.4233756,.031572852,2.0640984,1.5713472,.033162519,.14613518
0,39,0,0,0,80,1,1,1,1,-2.7657075,.059205659,.55012208,.50036961,.012757586,.0039107748
0,44,0,0,0,153,1,1,1,1,-2.8790984,.053196523,-.011085807,-.010991051,.020312818,2.5481054e-06
0,32,0,0,0,951,1,1,1,1,-2.6069601,.068691835,-.22443812,-.22744678,.036114864,.0018873564
0,44,0,0,0,515,1,1,1,1,-2.8790984,.053196523,-.011085807,-.010991051,.020312818,2.5481054e-06
0,40,0,0,0,974,1,1,1,1,-2.7883856,.05795503,.078573674,.076881409,.019460255,.00012252858
0,34,0,0,0,689,1,1,1,1,-2.6523163,.065846384,-.39323047,-.40711185,.038186379,.0061392016
0,54,0,0,0,726,1,1,1,1,-3.1058807,.042865336,-.82697612,-1.1464447,.017712787,.012332024
0,44,0,0,0,710,1,1,1,1,-2.8790984,.053196523,-.011085807,-.010991051,.020312818,2.5481054e-06
0,44,0,0,0,574,1,1,1,1,-2.8790984,.053196523,-.011085807,-.010991051,.020312818,2.5481054e-06
0,35,0,0,0,599,1,1,1,1,-2.6749945,.064465091,3.2965474,2.5487189,.034024067,.3827706
0,66,1,0,0,205,1,1,1,1,-3.3780191,.032989528,1.4803829,1.2103668,.04186013,.095745817
0,65,1,0,0,591,1,1,1,1,-3.355341,.033720702,2.0517354,1.5692018,.028097693,.12170004
0,44,0,0,0,825,1,1,1,1,-2.8790984,.053196523,-.011085807,-.010991051,.020312818,2.5481054e-06
0,26,0,0,0,707,1,1,1,1,-2.4708908,.077924214,-1.1936034,-1.6112392,.050913643,.076427303
0,53,0,0,0,891,1,1,1,1,-3.0832024,.04380548,.89720231,.79626429,.028662452,.023753298
0,60,0,0,0,809,1,1,1,1,-3.24195,.037617236,-.74741966,-1.0361489,.020424202,.01164759
0,38,0,0,0,177,1,1,1,1,-2.7430291,.060481545,.10152122,.098954938,.020180251,.00021227266
1,33,0,0,0,21,1,1,1,1,-2.6296382,.067255147,2.0819867,1.6895158,.027963966,.12470168
0,48,0,0,0,200,1,1,1,1,-2.9698114,.048808482,-.88427854,-1.2252328,.015670728,.012448784
0,20,0,0,0,720,1,1,1,1,-2.3348215,.088279836,.13405108,.12816696,.050262347,.00095099828
0,27,0,0,0,523,1,1,1,1,-2.4935689,.076310255,-1.3250179,-1.7818983,.058883686,.10984876
0,28,0,0,0,308,1,1,1,1,-2.516247,.074727021,.88140464,.78405893,.040860284,.033095594
0,45,0,0,0,430,1,1,1,1,-2.9017768,.052065805,.2565752,.24445529,.015789011,.0010560781
0,29,0,0,0,932,1,1,1,1,-2.5389254,.073174022,-1.1473061,-1.559379,.040333878,.055323344
0,52,0,0,0,583,1,1,1,1,-3.0605242,.044765282,-.87375426,-1.2105957,.017861784,.013884518
0,39,0,0,0,409,1,1,1,1,-2.7657075,.059205659,.55012208,.50036961,.012757586,.0039107748
0,45,0,0,0,446,1,1,1,1,-2.9017768,.052065805,.2565752,.24445529,.015789011,.0010560781
0,63,0,0,0,661,1,1,1,1,-3.3099844,.035230245,.47476524,.43244463,.029378761,.0068224678
0,79,1,1,1,314,1,1,1,1,-3.6728361,.024774931,-.65172631,-.89598203,.043032654,.019099917
0,45,0,0,0,767,1,1,1,1,-2.9017768,.052065805,.2565752,.24445529,.015789011,.0010560781
0,78,1,1,1,235,1,1,1,1,-3.6501577,.025328808,-.72087216,-.98736715,.049846642,.027262064
0,49,0,0,0,884,1,1,1,1,-2.9924896,.047766324,.10044882,.097899303,.020037131,.00020630777
0,47,0,0,0,637,1,1,1,1,-2.9471331,.049872182,1.4966724,1.2422001,.015612422,.035526924
0,64,0,0,0,532,1,1,1,1,-3.3326628,.034467503,.38739118,.35740265,.033868484,.0052608876
0,46,0,0,0,285,1,1,1,1,-2.9244549,.050957825,-.80777258,-1.120379,.012519839,.0082727252
0,52,0,0,0,685,1,1,1,1,-3.0605242,.044765282,-.87375426,-1.2105957,.017861784,.013884518
1,70,1,1,0,22,1,1,1,1,-3.4687321,.030215112,.58246291,.51772976,.039600868,.013989089
0,77,1,1,1,968,1,1,1,1,-3.6274796,.025894739,-.66593724,-.91626912,.040910844,.018916732
0,75,1,1,1,315,1,1,1,1,-3.582123,.027063757,-.70227689,-.96584088,.041182678,.02118339
0,46,0,0,0,662,1,1,1,1,-2.9244549,.050957825,-.80777258,-1.120379,.012519839,.0082727252
0,73,1,1,0,145,1,1,1,1,-3.5367668,.028284017,-.84061849,-1.1488338,.052603658,.039235767
1,40,0,0,0,46,1,1,1,1,-2.7883856,.05795503,.078573674,.076881409,.019460255,.00012252858
0,43,0,0,0,181,1,1,1,1,-2.8564203,.054350391,-.08677157,-.086935021,.021864908,.0001683076
0,73,1,1,0,451,1,1,1,1,-3.5367668,.028284017,-.84061849,-1.1488338,.052603658,.039235767
0,30,0,0,0,394,1,1,1,1,-2.5616035,.071650811,-.3845064,-.39558893,.046680178,.0072393739
0,77,1,1,1,109,1,1,1,1,-3.6274796,.025894739,-.66593724,-.91626912,.040910844,.018916732
0,71,1,1,0,416,1,1,1,1,-3.4914103,.029557625,-.75520259,-1.0392869,.038730126,.022978967
0,23,0,0,0,500,1,1,1,1,-2.4028561,.082955167,-1.2015532,-1.6118212,.06015088,.092399552
0,63,0,0,0,838,1,1,1,1,-3.3099844,.035230245,.47476524,.43244463,.029378761,.0068224678
0,24,0,0,0,992,1,1,1,1,-2.4255342,.08124619,-1.2667462,-1.6973689,.063142307,.10814986
0,40,0,0,0,330,1,1,1,1,-2.7883856,.05795503,.078573674,.076881409,.019460255,.00012252858
0,26,0,0,0,58,1,1,1,1,-2.4708908,.077924214,-1.1936034,-1.6112392,.050913643,.076427303
0,78,1,1,1,287,1,1,1,1,-3.6501577,.025328808,-.72087216,-.98736715,.049846642,.027262064
0,38,0,0,0,611,1,1,1,1,-2.7430291,.060481545,.10152122,.098954938,.020180251,.00021227266
0,79,1,1,1,346,1,1,1,1,-3.6728361,.024774931,-.65172631,-.89598203,.043032654,.019099917
0,64,0,0,0,830,1,1,1,1,-3.3326628,.034467503,.38739118,.35740265,.033868484,.0052608876
0,35,0,0,0,924,1,1,1,1,-2.6749945,.064465091,3.2965474,2.5487189,.034024067,.3827706
0,39,0,0,0,784,1,1,1,1,-2.7657075,.059205659,.55012208,.50036961,.012757586,.0039107748
0,60,0,0,0,669,1,1,1,1,-3.24195,.037617236,-.74741966,-1.0361489,.020424202,.01164759
0,42,0,0,0,356,1,1,1,1,-2.8337421,.055527821,-.16016324,-.16202682,.02363563,.00062098476
0,50,0,0,0,881,1,1,1,1,-3.0151677,.046745326,-.73880887,-1.0262601,.011770652,.0065014013
0,75,1,1,1,755,1,1,1,1,-3.582123,.027063757,-.70227689,-.96584088,.041182678,.02118339
0,34,0,0,0,289,1,1,1,1,-2.6523163,.065846384,-.39323047,-.40711185,.038186379,.0061392016
0,54,0,0,0,775,1,1,1,1,-3.1058807,.042865336,-.82697612,-1.1464447,.017712787,.012332024
0,34,0,0,0,690,1,1,1,1,-2.6523163,.065846384,-.39323047,-.40711185,.038186379,.0061392016
0,63,0,0,0,822,1,1,1,1,-3.3099844,.035230245,.47476524,.43244463,.029378761,.0068224678
0,70,1,1,0,390,1,1,1,1,-3.4687321,.030215112,.58246291,.51772976,.039600868,.013989089
0,47,0,0,0,754,1,1,1,1,-2.9471331,.049872182,1.4966724,1.2422001,.015612422,.035526924
0,77,1,1,1,744,1,1,1,1,-3.6274796,.025894739,-.66593724,-.91626912,.040910844,.018916732
0,34,0,0,0,382,1,1,1,1,-2.6523163,.065846384,-.39323047,-.40711185,.038186379,.0061392016
0,50,0,0,0,820,1,1,1,1,-3.0151677,.046745326,-.73880887,-1.0262601,.011770652,.0065014013
0,76,1,1,1,839,1,1,1,1,-3.6048014,.026472971,-.69477385,-.95509654,.04232822,.021335373
0,80,1,1,1,373,1,1,1,1,-3.6955142,.024232864,-.45072705,-.626499,.022039518,.0045783399
0,37,0,0,0,925,1,1,1,1,-2.720351,.061783116,-.11117639,-.11154097,.025660427,.0003255207
0,47,0,0,0,627,1,1,1,1,-2.9471331,.049872182,1.4966724,1.2422001,.015612422,.035526924
0,31,0,0,0,955,1,1,1,1,-2.5842817,.070156895,-.92205137,-1.2650167,.023790155,.020718785
0,69,1,0,0,979,1,1,1,1,-3.4460537,.03088676,1.5511549,1.1686599,.01613782,.039465796
0,28,0,0,0,152,1,1,1,1,-2.516247,.074727021,.88140464,.78405893,.040860284,.033095594
0,29,0,0,0,553,1,1,1,1,-2.5389254,.073174022,-1.1473061,-1.559379,.040333878,.055323344
0,24,0,0,0,789,1,1,1,1,-2.4255342,.08124619,-1.2667462,-1.6973689,.063142307,.10814986
0,33,0,0,0,90,1,1,1,1,-2.6296382,.067255147,2.0819867,1.6895158,.027963966,.12470168
0,59,0,0,0,657,1,1,1,1,-3.2192717,.0384469,-.63682103,-.88549972,.014053603,.0057805497
0,27,0,0,0,592,1,1,1,1,-2.4935689,.076310255,-1.3250179,-1.7818983,.058883686,.10984876
0,63,0,0,0,978,1,1,1,1,-3.3099844,.035230245,.47476524,.43244463,.029378761,.0068224678
0,56,0,0,0,225,1,1,1,1,-3.151237,.041042563,-.93708533,-1.2947369,.025219483,.022718918
0,61,0,0,0,78,1,1,1,1,-3.2646282,.036804788,2.4275563,1.8710856,.03483719,.21270669
0,66,1,0,0,997,1,1,1,1,-3.3780191,.032989528,1.4803829,1.2103668,.04186013,.095745817
0,21,0,0,0,740,1,1,1,1,-2.3574996,.086471505,-1.2355903,-1.6471859,.069978096,.114873
0,26,0,0,0,917,1,1,1,1,-2.4708908,.077924214,-1.1936034,-1.6112392,.050913643,.076427303
0,31,0,0,0,520,1,1,1,1,-2.5842817,.070156895,-.92205137,-1.2650167,.023790155,.020718785
0,33,0,0,0,698,1,1,1,1,-2.6296382,.067255147,2.0819867,1.6895158,.027963966,.12470168
0,33,0,0,0,195,1,1,1,1,-2.6296382,.067255147,2.0819867,1.6895158,.027963966,.12470168
0,43,0,0,0,519,1,1,1,1,-2.8564203,.054350391,-.08677157,-.086935021,.021864908,.0001683076
0,37,0,0,0,360,1,1,1,1,-2.720351,.061783116,-.11117639,-.11154097,.025660427,.0003255207
0,39,0,0,0,397,1,1,1,1,-2.7657075,.059205659,.55012208,.50036961,.012757586,.0039107748
0,59,0,0,0,512,1,1,1,1,-3.2192717,.0384469,-.63682103,-.88549972,.014053603,.0057805497
0,66,1,0,0,840,1,1,1,1,-3.3780191,.032989528,1.4803829,1.2103668,.04186013,.095745817
0,32,0,0,0,961,1,1,1,1,-2.6069601,.068691835,-.22443812,-.22744678,.036114864,.0018873564
0,32,0,0,0,395,1,1,1,1,-2.6069601,.068691835,-.22443812,-.22744678,.036114864,.0018873564
0,49,0,0,0,561,1,1,1,1,-2.9924896,.047766324,.10044882,.097899303,.020037131,.00020630777
0,41,0,0,0,635,1,1,1,1,-2.8110638,.056729227,-1.1653094,-1.6030232,.025659703,.035762135
1,43,0,0,0,50,1,1,1,1,-2.8564203,.054350391,-.08677157,-.086935021,.021864908,.0001683076
0,41,0,0,0,959,1,1,1,1,-2.8110638,.056729227,-1.1653094,-1.6030232,.025659703,.035762135
0,51,0,0,0,803,1,1,1,1,-3.0378461,.045745105,-.91123199,-1.2617574,.018543068,.015688024
0,58,0,0,0,318,1,1,1,1,-3.1965935,.039294116,-.61045402,-.84945011,.012189324,.0045984536
0,79,1,1,1,632,1,1,1,1,-3.6728361,.024774931,-.65172631,-.89598203,.043032654,.019099917
0,32,0,0,0,731,1,1,1,1,-2.6069601,.068691835,-.22443812,-.22744678,.036114864,.0018873564
0,32,0,0,0,742,1,1,1,1,-2.6069601,.068691835,-.22443812,-.22744678,.036114864,.0018873564
0,42,0,0,0,743,1,1,1,1,-2.8337421,.055527821,-.16016324,-.16202682,.02363563,.00062098476
0,32,0,0,0,654,1,1,1,1,-2.6069601,.068691835,-.22443812,-.22744678,.036114864,.0018873564
0,37,0,0,0,859,1,1,1,1,-2.720351,.061783116,-.11117639,-.11154097,.025660427,.0003255207
0,27,0,0,0,322,1,1,1,1,-2.4935689,.076310255,-1.3250179,-1.7818983,.058883686,.10984876
0,27,0,0,0,923,1,1,1,1,-2.4935689,.076310255,-1.3250179,-1.7818983,.058883686,.10984876
0,29,0,0,0,209,1,1,1,1,-2.5389254,.073174022,-1.1473061,-1.559379,.040333878,.055323344
0,21,0,0,0,842,1,1,1,1,-2.3574996,.086471505,-1.2355903,-1.6471859,.069978096,.114873
0,31,0,0,0,631,1,1,1,1,-2.5842817,.070156895,-.92205137,-1.2650167,.023790155,.020718785
0,78,1,1,1,765,1,1,1,1,-3.6501577,.025328808,-.72087216,-.98736715,.049846642,.027262064
0,37,0,0,0,478,1,1,1,1,-2.720351,.061783116,-.11117639,-.11154097,.025660427,.0003255207
0,31,0,0,0,787,1,1,1,1,-2.5842817,.070156895,-.92205137,-1.2650167,.023790155,.020718785
0,61,0,0,0,953,1,1,1,1,-3.2646282,.036804788,2.4275563,1.8710856,.03483719,.21270669
0,29,0,0,0,581,1,1,1,1,-2.5389254,.073174022,-1.1473061,-1.559379,.040333878,.055323344
0,50,0,0,0,577,1,1,1,1,-3.0151677,.046745326,-.73880887,-1.0262601,.011770652,.0065014013
0,45,0,0,0,366,1,1,1,1,-2.9017768,.052065805,.2565752,.24445529,.015789011,.0010560781
1,38,0,0,0,29,1,1,1,1,-2.7430291,.060481545,.10152122,.098954938,.020180251,.00021227266
0,51,0,0,0,946,1,1,1,1,-3.0378461,.045745105,-.91123199,-1.2617574,.018543068,.015688024
0,54,0,0,0,531,1,1,1,1,-3.1058807,.042865336,-.82697612,-1.1464447,.017712787,.012332024
0,54,0,0,0,768,1,1,1,1,-3.1058807,.042865336,-.82697612,-1.1464447,.017712787,.012332024
0,44,0,0,0,872,1,1,1,1,-2.8790984,.053196523,-.011085807,-.010991051,.020312818,2.5481054e-06
0,42,0,0,0,469,1,1,1,1,-2.8337421,.055527821,-.16016324,-.16202682,.02363563,.00062098476
0,30,0,0,0,449,1,1,1,1,-2.5616035,.071650811,-.3845064,-.39558893,.046680178,.0072393739
0,73,1,1,0,176,1,1,1,1,-3.5367668,.028284017,-.84061849,-1.1488338,.052603658,.039235767
0,30,0,0,0,474,1,1,1,1,-2.5616035,.071650811,-.3845064,-.39558893,.046680178,.0072393739
0,42,0,0,0,97,1,1,1,1,-2.8337421,.055527821,-.16016324,-.16202682,.02363563,.00062098476
0,30,0,0,0,769,1,1,1,1,-2.5616035,.071650811,-.3845064,-.39558893,.046680178,.0072393739
0,36,0,0,0,470,1,1,1,1,-2.6976728,.063110821,-1.0510017,-1.4443299,.024272041,.027477954
0,30,0,0,0,343,1,1,1,1,-2.5616035,.071650811,-.3845064,-.39558893,.046680178,.0072393739
0,27,0,0,0,644,1,1,1,1,-2.4935689,.076310255,-1.3250179,-1.7818983,.058883686,.10984876
0,76,1,1,1,338,1,1,1,1,-3.6048014,.026472971,-.69477385,-.95509654,.04232822,.021335373
1,35,0,0,0,11,1,1,1,1,-2.6749945,.064465091,3.2965474,2.5487189,.034024067,.3827706
0,44,0,0,0,495,1,1,1,1,-2.8790984,.053196523,-.011085807,-.010991051,.020312818,2.5481054e-06
0,33,0,0,0,398,1,1,1,1,-2.6296382,.067255147,2.0819867,1.6895158,.027963966,.12470168
0,29,0,0,0,214,1,1,1,1,-2.5389254,.073174022,-1.1473061,-1.559379,.040333878,.055323344
0,25,0,0,0,272,1,1,1,1,-2.4482124,.07956937,-1.0846245,-1.4682488,.044700932,.055047307
0,29,0,0,0,692,1,1,1,1,-2.5389254,.073174022,-1.1473061,-1.559379,.040333878,.055323344
0,48,0,0,0,501,1,1,1,1,-2.9698114,.048808482,-.88427854,-1.2252328,.015670728,.012448784
0,44,0,0,0,696,1,1,1,1,-2.8790984,.053196523,-.011085807,-.010991051,.020312818,2.5481054e-06
0,49,0,0,0,541,1,1,1,1,-2.9924896,.047766324,.10044882,.097899303,.020037131,.00020630777
0,29,0,0,0,560,1,1,1,1,-2.5389254,.073174022,-1.1473061,-1.559379,.040333878,.055323344
0,45,0,0,0,686,1,1,1,1,-2.9017768,.052065805,.2565752,.24445529,.015789011,.0010560781
0,29,0,0,0,136,1,1,1,1,-2.5389254,.073174022,-1.1473061,-1.559379,.040333878,.055323344
0,34,0,0,0,59,1,1,1,1,-2.6523163,.065846384,-.39323047,-.40711185,.038186379,.0061392016
0,26,0,0,0,290,1,1,1,1,-2.4708908,.077924214,-1.1936034,-1.6112392,.050913643,.076427303
0,34,0,0,0,342,1,1,1,1,-2.6523163,.065846384,-.39323047,-.40711185,.038186379,.0061392016
0,41,0,0,0,899,1,1,1,1,-2.8110638,.056729227,-1.1653094,-1.6030232,.025659703,.035762135
0,63,0,0,0,849,1,1,1,1,-3.3099844,.035230245,.47476524,.43244463,.029378761,.0068224678
0,73,1,1,0,220,1,1,1,1,-3.5367668,.028284017,-.84061849,-1.1488338,.052603658,.039235767
0,58,0,0,0,396,1,1,1,1,-3.1965935,.039294116,-.61045402,-.84945011,.012189324,.0045984536
0,45,0,0,0,108,1,1,1,1,-2.9017768,.052065805,.2565752,.24445529,.015789011,.0010560781
0,77,1,1,1,207,1,1,1,1,-3.6274796,.025894739,-.66593724,-.91626912,.040910844,.018916732
0,52,0,0,0,783,1,1,1,1,-3.0605242,.044765282,-.87375426,-1.2105957,.017861784,.013884518
0,49,0,0,0,211,1,1,1,1,-2.9924896,.047766324,.10044882,.097899303,.020037131,.00020630777
0,53,0,0,0,229,1,1,1,1,-3.0832024,.04380548,.89720231,.79626429,.028662452,.023753298
0,77,1,1,1,646,1,1,1,1,-3.6274796,.025894739,-.66593724,-.91626912,.040910844,.018916732
0,29,0,0,0,613,1,1,1,1,-2.5389254,.073174022,-1.1473061,-1.559379,.040333878,.055323344
0,72,1,1,0,907,1,1,1,1,-3.5140884,.028914018,-.78940398,-1.0833331,.044386759,.028944757
0,74,1,1,0,889,1,1,1,1,-3.5594449,.027667351,-.68782216,-.94754088,.037678074,.018523397
0,32,0,0,0,969,1,1,1,1,-2.6069601,.068691835,-.22443812,-.22744678,.036114864,.0018873564
0,43,0,0,0,628,1,1,1,1,-2.8564203,.054350391,-.08677157,-.086935021,.021864908,.0001683076
0,40,0,0,0,930,1,1,1,1,-2.7883856,.05795503,.078573674,.076881409,.019460255,.00012252858
0,60,0,0,0,983,1,1,1,1,-3.24195,.037617236,-.74741966,-1.0361489,.020424202,.01164759
0,71,1,1,0,625,1,1,1,1,-3.4914103,.029557625,-.75520259,-1.0392869,.038730126,.022978967
0,35,0,0,0,956,1,1,1,1,-2.6749945,.064465091,3.2965474,2.5487189,.034024067,.3827706
0,20,0,0,0,796,1,1,1,1,-2.3348215,.088279836,.13405108,.12816696,.050262347,.00095099828
0,41,0,0,0,86,1,1,1,1,-2.8110638,.056729227,-1.1653094,-1.6030232,.025659703,.035762135
0,61,0,0,0,805,1,1,1,1,-3.2646282,.036804788,2.4275563,1.8710856,.03483719,.21270669
0,38,0,0,0,647,1,1,1,1,-2.7430291,.060481545,.10152122,.098954938,.020180251,.00021227266
0,41,0,0,0,231,1,1,1,1,-2.8110638,.056729227,-1.1653094,-1.6030232,.025659703,.035762135
0,51,0,0,0,189,1,1,1,1,-3.0378461,.045745105,-.91123199,-1.2617574,.018543068,.015688024
0,53,0,0,0,819,1,1,1,1,-3.0832024,.04380548,.89720231,.79626429,.028662452,.023753298
0,30,0,0,0,117,1,1,1,1,-2.5616035,.071650811,-.3845064,-.39558893,.046680178,.0072393739
1,33,0,0,0,39,1,1,1,1,-2.6296382,.067255147,2.0819867,1.6895158,.027963966,.12470168
0,64,0,0,0,440,1,1,1,1,-3.3326628,.034467503,.38739118,.35740265,.033868484,.0052608876
0,22,0,0,0,296,1,1,1,1,-2.3801777,.084696777,.50694144,.46319354,.073555008,.020403665
0,56,0,0,0,131,1,1,1,1,-3.151237,.041042563,-.93708533,-1.2947369,.025219483,.022718918
0,45,0,0,0,227,1,1,1,1,-2.9017768,.052065805,.2565752,.24445529,.015789011,.0010560781
0,56,0,0,0,277,1,1,1,1,-3.151237,.041042563,-.93708533,-1.2947369,.025219483,.022718918
0,62,0,0,0,525,1,1,1,1,-3.2873063,.036009233,-.78300369,-1.0833069,.025159918,.015823532
0,31,0,0,0,263,1,1,1,1,-2.5842817,.070156895,-.92205137,-1.2650167,.023790155,.020718785
0,44,0,0,0,137,1,1,1,1,-2.8790984,.053196523,-.011085807,-.010991051,.020312818,2.5481054e-06
1,49,0,0,0,10,1,1,1,1,-2.9924896,.047766324,.10044882,.097899303,.020037131,.00020630777
0,69,1,0,0,196,1,1,1,1,-3.4460537,.03088676,1.5511549,1.1686599,.01613782,.039465796
0,33,0,0,0,199,1,1,1,1,-2.6296382,.067255147,2.0819867,1.6895158,.027963966,.12470168
0,22,0,0,0,270,1,1,1,1,-2.3801777,.084696777,.50694144,.46319354,.073555008,.020403665
0,35,0,0,0,64,1,1,1,1,-2.6749945,.064465091,3.2965474,2.5487189,.034024067,.3827706
0,61,0,0,0,213,1,1,1,1,-3.2646282,.036804788,2.4275563,1.8710856,.03483719,.21270669
0,33,0,0,0,286,1,1,1,1,-2.6296382,.067255147,2.0819867,1.6895158,.027963966,.12470168
0,23,0,0,0,989,1,1,1,1,-2.4028561,.082955167,-1.2015532,-1.6118212,.06015088,.092399552
0,26,0,0,0,600,1,1,1,1,-2.4708908,.077924214,-1.1936034,-1.6112392,.050913643,.076427303
0,33,0,0,0,680,1,1,1,1,-2.6296382,.067255147,2.0819867,1.6895158,.027963966,.12470168
0,28,0,0,0,374,1,1,1,1,-2.516247,.074727021,.88140464,.78405893,.040860284,.033095594
0,79,1,1,1,808,1,1,1,1,-3.6728361,.024774931,-.65172631,-.89598203,.043032654,.019099917
1,61,0,0,0,8,1,1,1,1,-3.2646282,.036804788,2.4275563,1.8710856,.03483719,.21270669
0,67,1,0,0,941,1,1,1,1,-3.4006975,.032273676,.69469565,.60815483,.030159049,.015007429
0,79,1,1,1,882,1,1,1,1,-3.6728361,.024774931,-.65172631,-.89598203,.043032654,.019099917
0,26,0,0,0,785,1,1,1,1,-2.4708908,.077924214,-1.1936034,-1.6112392,.050913643,.076427303
0,41,0,0,0,103,1,1,1,1,-2.8110638,.056729227,-1.1653094,-1.6030232,.025659703,.035762135
0,67,1,0,0,522,1,1,1,1,-3.4006975,.032273676,.69469565,.60815483,.030159049,.015007429
0,43,0,0,0,505,1,1,1,1,-2.8564203,.054350391,-.08677157,-.086935021,.021864908,.0001683076
0,21,0,0,0,311,1,1,1,1,-2.3574996,.086471505,-1.2355903,-1.6471859,.069978096,.114873
0,75,1,1,1,260,1,1,1,1,-3.582123,.027063757,-.70227689,-.96584088,.041182678,.02118339
0,25,0,0,0,292,1,1,1,1,-2.4482124,.07956937,-1.0846245,-1.4682488,.044700932,.055047307
0,33,0,0,0,800,1,1,1,1,-2.6296382,.067255147,2.0819867,1.6895158,.027963966,.12470168
0,30,0,0,0,359,1,1,1,1,-2.5616035,.071650811,-.3845064,-.39558893,.046680178,.0072393739
0,51,0,0,0,76,1,1,1,1,-3.0378461,.045745105,-.91123199,-1.2617574,.018543068,.015688024
0,25,0,0,0,866,1,1,1,1,-2.4482124,.07956937,-1.0846245,-1.4682488,.044700932,.055047307
0,42,0,0,0,811,1,1,1,1,-2.8337421,.055527821,-.16016324,-.16202682,.02363563,.00062098476
0,25,0,0,0,688,1,1,1,1,-2.4482124,.07956937,-1.0846245,-1.4682488,.044700932,.055047307
0,56,0,0,0,723,1,1,1,1,-3.151237,.041042563,-.93708533,-1.2947369,.025219483,.022718918
0,24,0,0,0,703,1,1,1,1,-2.4255342,.08124619,-1.2667462,-1.6973689,.063142307,.10814986
0,22,0,0,0,713,1,1,1,1,-2.3801777,.084696777,.50694144,.46319354,.073555008,.020403665
0,24,0,0,0,273,1,1,1,1,-2.4255342,.08124619,-1.2667462,-1.6973689,.063142307,.10814986
0,32,0,0,0,341,1,1,1,1,-2.6069601,.068691835,-.22443812,-.22744678,.036114864,.0018873564
0,65,1,0,0,629,1,1,1,1,-3.355341,.033720702,2.0517354,1.5692018,.028097693,.12170004
0,29,0,0,0,193,1,1,1,1,-2.5389254,.073174022,-1.1473061,-1.559379,.040333878,.055323344
0,24,0,0,0,624,1,1,1,1,-2.4255342,.08124619,-1.2667462,-1.6973689,.063142307,.10814986
0,58,0,0,0,619,1,1,1,1,-3.1965935,.039294116,-.61045402,-.84945011,.012189324,.0045984536
0,61,0,0,0,70,1,1,1,1,-3.2646282,.036804788,2.4275563,1.8710856,.03483719,.21270669
0,41,0,0,0,493,1,1,1,1,-2.8110638,.056729227,-1.1653094,-1.6030232,.025659703,.035762135
0,31,0,0,0,234,1,1,1,1,-2.5842817,.070156895,-.92205137,-1.2650167,.023790155,.020718785
0,30,0,0,0,676,1,1,1,1,-2.5616035,.071650811,-.3845064,-.39558893,.046680178,.0072393739
0,62,0,0,0,378,1,1,1,1,-3.2873063,.036009233,-.78300369,-1.0833069,.025159918,.015823532
0,66,1,0,0,125,1,1,1,1,-3.3780191,.032989528,1.4803829,1.2103668,.04186013,.095745817
0,47,0,0,0,922,1,1,1,1,-2.9471331,.049872182,1.4966724,1.2422001,.015612422,.035526924
0,55,0,0,0,533,1,1,1,1,-3.1285589,.041944481,1.0408324,.86569732,.010972003,.012018187
0,26,0,0,0,918,1,1,1,1,-2.4708908,.077924214,-1.1936034,-1.6112392,.050913643,.076427303
0,23,0,0,0,548,1,1,1,1,-2.4028561,.082955167,-1.2015532,-1.6118212,.06015088,.092399552
0,76,1,1,1,568,1,1,1,1,-3.6048014,.026472971,-.69477385,-.95509654,.04232822,.021335373
0,23,0,0,0,173,1,1,1,1,-2.4028561,.082955167,-1.2015532,-1.6118212,.06015088,.092399552
0,78,1,1,1,139,1,1,1,1,-3.6501577,.025328808,-.72087216,-.98736715,.049846642,.027262064
0,32,0,0,0,643,1,1,1,1,-2.6069601,.068691835,-.22443812,-.22744678,.036114864,.0018873564
0,47,0,0,0,607,1,1,1,1,-2.9471331,.049872182,1.4966724,1.2422001,.015612422,.035526924
0,36,0,0,0,130,1,1,1,1,-2.6976728,.063110821,-1.0510017,-1.4443299,.024272041,.027477954
0,78,1,1,1,339,1,1,1,1,-3.6501577,.025328808,-.72087216,-.98736715,.049846642,.027262064
0,71,1,1,0,904,1,1,1,1,-3.4914103,.029557625,-.75520259,-1.0392869,.038730126,.022978967
0,61,0,0,0,466,1,1,1,1,-3.2646282,.036804788,2.4275563,1.8710856,.03483719,.21270669
0,51,0,0,0,705,1,1,1,1,-3.0378461,.045745105,-.91123199,-1.2617574,.018543068,.015688024
0,25,0,0,0,355,1,1,1,1,-2.4482124,.07956937,-1.0846245,-1.4682488,.044700932,.055047307
0,66,1,0,0,771,1,1,1,1,-3.3780191,.032989528,1.4803829,1.2103668,.04186013,.095745817
0,38,0,0,0,683,1,1,1,1,-2.7430291,.060481545,.10152122,.098954938,.020180251,.00021227266
0,71,1,1,0,87,1,1,1,1,-3.4914103,.029557625,-.75520259,-1.0392869,.038730126,.022978967
0,63,0,0,0,511,1,1,1,1,-3.3099844,.035230245,.47476524,.43244463,.029378761,.0068224678
0,49,0,0,0,91,1,1,1,1,-2.9924896,.047766324,.10044882,.097899303,.020037131,.00020630777
0,73,1,1,0,226,1,1,1,1,-3.5367668,.028284017,-.84061849,-1.1488338,.052603658,.039235767
0,22,0,0,0,616,1,1,1,1,-2.3801777,.084696777,.50694144,.46319354,.073555008,.020403665
0,76,1,1,1,660,1,1,1,1,-3.6048014,.026472971,-.69477385,-.95509654,.04232822,.021335373
0,32,0,0,0,752,1,1,1,1,-2.6069601,.068691835,-.22443812,-.22744678,.036114864,.0018873564
0,73,1,1,0,281,1,1,1,1,-3.5367668,.028284017,-.84061849,-1.1488338,.052603658,.039235767
0,70,1,1,0,326,1,1,1,1,-3.4687321,.030215112,.58246291,.51772976,.039600868,.013989089
0,40,0,0,0,732,1,1,1,1,-2.7883856,.05795503,.078573674,.076881409,.019460255,.00012252858
0,55,0,0,0,894,1,1,1,1,-3.1285589,.041944481,1.0408324,.86569732,.010972003,.012018187
0,62,0,0,0,283,1,1,1,1,-3.2873063,.036009233,-.78300369,-1.0833069,.025159918,.015823532
0,22,0,0,0,986,1,1,1,1,-2.3801777,.084696777,.50694144,.46319354,.073555008,.020403665
0,70,1,1,0,188,1,1,1,1,-3.4687321,.030215112,.58246291,.51772976,.039600868,.013989089
0,50,0,0,0,113,1,1,1,1,-3.0151677,.046745326,-.73880887,-1.0262601,.011770652,.0065014013
0,32,0,0,0,897,1,1,1,1,-2.6069601,.068691835,-.22443812,-.22744678,.036114864,.0018873564
0,79,1,1,1,190,1,1,1,1,-3.6728361,.024774931,-.65172631,-.89598203,.043032654,.019099917
0,71,1,1,0,262,1,1,1,1,-3.4914103,.029557625,-.75520259,-1.0392869,.038730126,.022978967
0,53,0,0,0,184,1,1,1,1,-3.0832024,.04380548,.89720231,.79626429,.028662452,.023753298
0,65,1,0,0,671,1,1,1,1,-3.355341,.033720702,2.0517354,1.5692018,.028097693,.12170004
0,40,0,0,0,602,1,1,1,1,-2.7883856,.05795503,.078573674,.076881409,.019460255,.00012252858
0,38,0,0,0,850,1,1,1,1,-2.7430291,.060481545,.10152122,.098954938,.020180251,.00021227266
0,27,0,0,0,383,1,1,1,1,-2.4935689,.076310255,-1.3250179,-1.7818983,.058883686,.10984876
0,63,0,0,0,915,1,1,1,1,-3.3099844,.035230245,.47476524,.43244463,.029378761,.0068224678
0,75,1,1,1,999,1,1,1,1,-3.582123,.027063757,-.70227689,-.96584088,.041182678,.02118339
0,72,1,1,0,476,1,1,1,1,-3.5140884,.028914018,-.78940398,-1.0833331,.044386759,.028944757
0,35,0,0,0,321,1,1,1,1,-2.6749945,.064465091,3.2965474,2.5487189,.034024067,.3827706
0,26,0,0,0,313,1,1,1,1,-2.4708908,.077924214,-1.1936034,-1.6112392,.050913643,.076427303
0,28,0,0,0,779,1,1,1,1,-2.516247,.074727021,.88140464,.78405893,.040860284,.033095594
0,78,1,1,1,584,1,1,1,1,-3.6501577,.025328808,-.72087216,-.98736715,.049846642,.027262064
0,41,0,0,0,772,1,1,1,1,-2.8110638,.056729227,-1.1653094,-1.6030232,.025659703,.035762135
0,70,1,1,0,823,1,1,1,1,-3.4687321,.030215112,.58246291,.51772976,.039600868,.013989089
0,27,0,0,0,750,1,1,1,1,-2.4935689,.076310255,-1.3250179,-1.7818983,.058883686,.10984876
0,43,0,0,0,510,1,1,1,1,-2.8564203,.054350391,-.08677157,-.086935021,.021864908,.0001683076
0,71,1,1,0,810,1,1,1,1,-3.4914103,.029557625,-.75520259,-1.0392869,.038730126,.022978967
0,48,0,0,0,332,1,1,1,1,-2.9698114,.048808482,-.88427854,-1.2252328,.015670728,.012448784
0,76,1,1,1,777,1,1,1,1,-3.6048014,.026472971,-.69477385,-.95509654,.04232822,.021335373
0,37,0,0,0,494,1,1,1,1,-2.720351,.061783116,-.11117639,-.11154097,.025660427,.0003255207
0,25,0,0,0,1000,1,1,1,1,-2.4482124,.07956937,-1.0846245,-1.4682488,.044700932,.055047307
0,39,0,0,0,736,1,1,1,1,-2.7657075,.059205659,.55012208,.50036961,.012757586,.0039107748
0,21,0,0,0,284,1,1,1,1,-2.3574996,.086471505,-1.2355903,-1.6471859,.069978096,.114873
0,48,0,0,0,554,1,1,1,1,-2.9698114,.048808482,-.88427854,-1.2252328,.015670728,.012448784
0,41,0,0,0,940,1,1,1,1,-2.8110638,.056729227,-1.1653094,-1.6030232,.025659703,.035762135
0,49,0,0,0,576,1,1,1,1,-2.9924896,.047766324,.10044882,.097899303,.020037131,.00020630777
0,50,0,0,0,854,1,1,1,1,-3.0151677,.046745326,-.73880887,-1.0262601,.011770652,.0065014013
1,18,0,0,0,3,1,1,1,1,-2.289465,.091999233,4.4689779,3.0893204,.011639109,.23519096
0,26,0,0,0,51,1,1,1,1,-2.4708908,.077924214,-1.1936034,-1.6112392,.050913643,.076427303
0,49,0,0,0,498,1,1,1,1,-2.9924896,.047766324,.10044882,.097899303,.020037131,.00020630777
0,52,0,0,0,794,1,1,1,1,-3.0605242,.044765282,-.87375426,-1.2105957,.017861784,.013884518
0,30,0,0,0,892,1,1,1,1,-2.5616035,.071650811,-.3845064,-.39558893,.046680178,.0072393739
0,34,0,0,0,836,1,1,1,1,-2.6523163,.065846384,-.39323047,-.40711185,.038186379,.0061392016
0,77,1,1,1,846,1,1,1,1,-3.6274796,.025894739,-.66593724,-.91626912,.040910844,.018916732
0,34,0,0,0,704,1,1,1,1,-2.6523163,.065846384,-.39323047,-.40711185,.038186379,.0061392016
0,29,0,0,0,146,1,1,1,1,-2.5389254,.073174022,-1.1473061,-1.559379,.040333878,.055323344
0,51,0,0,0,614,1,1,1,1,-3.0378461,.045745105,-.91123199,-1.2617574,.018543068,.015688024
0,20,0,0,0,105,1,1,1,1,-2.3348215,.088279836,.13405108,.12816696,.050262347,.00095099828
0,22,0,0,0,816,1,1,1,1,-2.3801777,.084696777,.50694144,.46319354,.073555008,.020403665
0,72,1,1,0,995,1,1,1,1,-3.5140884,.028914018,-.78940398,-1.0833331,.044386759,.028944757
0,29,0,0,0,996,1,1,1,1,-2.5389254,.073174022,-1.1473061,-1.559379,.040333878,.055323344
0,61,0,0,0,169,1,1,1,1,-3.2646282,.036804788,2.4275563,1.8710856,.03483719,.21270669
0,68,1,0,0,490,1,1,1,1,-3.4233756,.031572852,2.0640984,1.5713472,.033162519,.14613518
1,34,0,0,0,48,1,1,1,1,-2.6523163,.065846384,-.39323047,-.40711185,.038186379,.0061392016
0,50,0,0,0,325,1,1,1,1,-3.0151677,.046745326,-.73880887,-1.0262601,.011770652,.0065014013
0,24,0,0,0,161,1,1,1,1,-2.4255342,.08124619,-1.2667462,-1.6973689,.063142307,.10814986
0,47,0,0,0,921,1,1,1,1,-2.9471331,.049872182,1.4966724,1.2422001,.015612422,.035526924
0,23,0,0,0,748,1,1,1,1,-2.4028561,.082955167,-1.2015532,-1.6118212,.06015088,.092399552
0,70,1,1,0,68,1,1,1,1,-3.4687321,.030215112,.58246291,.51772976,.039600868,.013989089
0,72,1,1,0,350,1,1,1,1,-3.5140884,.028914018,-.78940398,-1.0833331,.044386759,.028944757
0,76,1,1,1,473,1,1,1,1,-3.6048014,.026472971,-.69477385,-.95509654,.04232822,.021335373
0,30,0,0,0,876,1,1,1,1,-2.5616035,.071650811,-.3845064,-.39558893,.046680178,.0072393739
0,79,1,1,1,143,1,1,1,1,-3.6728361,.024774931,-.65172631,-.89598203,.043032654,.019099917
0,51,0,0,0,472,1,1,1,1,-3.0378461,.045745105,-.91123199,-1.2617574,.018543068,.015688024
0,43,0,0,0,970,1,1,1,1,-2.8564203,.054350391,-.08677157,-.086935021,.021864908,.0001683076
0,23,0,0,0,596,1,1,1,1,-2.4028561,.082955167,-1.2015532,-1.6118212,.06015088,.092399552
0,47,0,0,0,648,1,1,1,1,-2.9471331,.049872182,1.4966724,1.2422001,.015612422,.035526924
0,64,0,0,0,691,1,1,1,1,-3.3326628,.034467503,.38739118,.35740265,.033868484,.0052608876
0,34,0,0,0,179,1,1,1,1,-2.6523163,.065846384,-.39323047,-.40711185,.038186379,.0061392016
0,44,0,0,0,524,1,1,1,1,-2.8790984,.053196523,-.011085807,-.010991051,.020312818,2.5481054e-06
0,46,0,0,0,410,1,1,1,1,-2.9244549,.050957825,-.80777258,-1.120379,.012519839,.0082727252
0,51,0,0,0,739,1,1,1,1,-3.0378461,.045745105,-.91123199,-1.2617574,.018543068,.015688024
0,53,0,0,0,824,1,1,1,1,-3.0832024,.04380548,.89720231,.79626429,.028662452,.023753298
0,40,0,0,0,126,1,1,1,1,-2.7883856,.05795503,.078573674,.076881409,.019460255,.00012252858
0,77,1,1,1,670,1,1,1,1,-3.6274796,.025894739,-.66593724,-.91626912,.040910844,.018916732
0,68,1,0,0,261,1,1,1,1,-3.4233756,.031572852,2.0640984,1.5713472,.033162519,.14613518
0,65,1,0,0,684,1,1,1,1,-3.355341,.033720702,2.0517354,1.5692018,.028097693,.12170004
0,57,0,0,0,833,1,1,1,1,-3.1739154,.040159222,1.0905881,.89812827,.011755371,.014147945
0,48,0,0,0,597,1,1,1,1,-2.9698114,.048808482,-.88427854,-1.2252328,.015670728,.012448784
0,52,0,0,0,444,1,1,1,1,-3.0605242,.044765282,-.87375426,-1.2105957,.017861784,.013884518
0,53,0,0,0,793,1,1,1,1,-3.0832024,.04380548,.89720231,.79626429,.028662452,.023753298
0,49,0,0,0,481,1,1,1,1,-2.9924896,.047766324,.10044882,.097899303,.020037131,.00020630777
0,52,0,0,0,566,1,1,1,1,-3.0605242,.044765282,-.87375426,-1.2105957,.017861784,.013884518
0,54,0,0,0,967,1,1,1,1,-3.1058807,.042865336,-.82697612,-1.1464447,.017712787,.012332024
0,43,0,0,0,298,1,1,1,1,-2.8564203,.054350391,-.08677157,-.086935021,.021864908,.0001683076
0,61,0,0,0,545,1,1,1,1,-3.2646282,.036804788,2.4275563,1.8710856,.03483719,.21270669
0,62,0,0,0,84,1,1,1,1,-3.2873063,.036009233,-.78300369,-1.0833069,.025159918,.015823532
0,36,0,0,0,279,1,1,1,1,-2.6976728,.063110821,-1.0510017,-1.4443299,.024272041,.027477954
0,37,0,0,0,994,1,1,1,1,-2.720351,.061783116,-.11117639,-.11154097,.025660427,.0003255207
1,37,0,0,0,19,1,1,1,1,-2.720351,.061783116,-.11117639,-.11154097,.025660427,.0003255207
0,38,0,0,0,919,1,1,1,1,-2.7430291,.060481545,.10152122,.098954938,.020180251,.00021227266
0,23,0,0,0,990,1,1,1,1,-2.4028561,.082955167,-1.2015532,-1.6118212,.06015088,.092399552
0,80,1,1,1,482,1,1,1,1,-3.6955142,.024232864,-.45072705,-.626499,.022039518,.0045783399
0,66,1,0,0,241,1,1,1,1,-3.3780191,.032989528,1.4803829,1.2103668,.04186013,.095745817
0,49,0,0,0,804,1,1,1,1,-2.9924896,.047766324,.10044882,.097899303,.020037131,.00020630777
0,21,0,0,0,507,1,1,1,1,-2.3574996,.086471505,-1.2355903,-1.6471859,.069978096,.114873
0,53,0,0,0,903,1,1,1,1,-3.0832024,.04380548,.89720231,.79626429,.028662452,.023753298
0,21,0,0,0,485,1,1,1,1,-2.3574996,.086471505,-1.2355903,-1.6471859,.069978096,.114873
0,43,0,0,0,467,1,1,1,1,-2.8564203,.054350391,-.08677157,-.086935021,.021864908,.0001683076
0,47,0,0,0,364,1,1,1,1,-2.9471331,.049872182,1.4966724,1.2422001,.015612422,.035526924
0,79,1,1,1,985,1,1,1,1,-3.6728361,.024774931,-.65172631,-.89598203,.043032654,.019099917
1,53,0,0,0,47,1,1,1,1,-3.0832024,.04380548,.89720231,.79626429,.028662452,.023753298
0,20,0,0,0,82,1,1,1,1,-2.3348215,.088279836,.13405108,.12816696,.050262347,.00095099828
0,53,0,0,0,667,1,1,1,1,-3.0832024,.04380548,.89720231,.79626429,.028662452,.023753298
0,64,0,0,0,875,1,1,1,1,-3.3326628,.034467503,.38739118,.35740265,.033868484,.0052608876
1,63,0,0,0,37,1,1,1,1,-3.3099844,.035230245,.47476524,.43244463,.029378761,.0068224678
0,34,0,0,0,890,1,1,1,1,-2.6523163,.065846384,-.39323047,-.40711185,.038186379,.0061392016
0,52,0,0,0,718,1,1,1,1,-3.0605242,.044765282,-.87375426,-1.2105957,.017861784,.013884518
1,47,0,0,0,40,1,1,1,1,-2.9471331,.049872182,1.4966724,1.2422001,.015612422,.035526924
0,80,1,1,1,468,1,1,1,1,-3.6955142,.024232864,-.45072705,-.626499,.022039518,.0045783399
0,66,1,0,0,939,1,1,1,1,-3.3780191,.032989528,1.4803829,1.2103668,.04186013,.095745817
0,73,1,1,0,675,1,1,1,1,-3.5367668,.028284017,-.84061849,-1.1488338,.052603658,.039235767
1,53,0,0,0,6,1,1,1,1,-3.0832024,.04380548,.89720231,.79626429,.028662452,.023753298
0,68,1,0,0,387,1,1,1,1,-3.4233756,.031572852,2.0640984,1.5713472,.033162519,.14613518
0,27,0,0,0,265,1,1,1,1,-2.4935689,.076310255,-1.3250179,-1.7818983,.058883686,.10984876
0,46,0,0,0,666,1,1,1,1,-2.9244549,.050957825,-.80777258,-1.120379,.012519839,.0082727252
0,53,0,0,0,391,1,1,1,1,-3.0832024,.04380548,.89720231,.79626429,.028662452,.023753298
0,52,0,0,0,539,1,1,1,1,-3.0605242,.044765282,-.87375426,-1.2105957,.017861784,.013884518
0,78,1,1,1,737,1,1,1,1,-3.6501577,.025328808,-.72087216,-.98736715,.049846642,.027262064
0,56,0,0,0,852,1,1,1,1,-3.151237,.041042563,-.93708533,-1.2947369,.025219483,.022718918
0,48,0,0,0,471,1,1,1,1,-2.9698114,.048808482,-.88427854,-1.2252328,.015670728,.012448784
0,27,0,0,0,834,1,1,1,1,-2.4935689,.076310255,-1.3250179,-1.7818983,.058883686,.10984876
0,77,1,1,1,331,1,1,1,1,-3.6274796,.025894739,-.66593724,-.91626912,.040910844,.018916732
0,54,0,0,0,329,1,1,1,1,-3.1058807,.042865336,-.82697612,-1.1464447,.017712787,.012332024
0,68,1,0,0,319,1,1,1,1,-3.4233756,.031572852,2.0640984,1.5713472,.033162519,.14613518
0,78,1,1,1,107,1,1,1,1,-3.6501577,.025328808,-.72087216,-.98736715,.049846642,.027262064
0,54,0,0,0,337,1,1,1,1,-3.1058807,.042865336,-.82697612,-1.1464447,.017712787,.012332024
0,78,1,1,1,99,1,1,1,1,-3.6501577,.025328808,-.72087216,-.98736715,.049846642,.027262064
0,53,0,0,0,504,1,1,1,1,-3.0832024,.04380548,.89720231,.79626429,.028662452,.023753298
0,68,1,0,0,514,1,1,1,1,-3.4233756,.031572852,2.0640984,1.5713472,.033162519,.14613518
1,66,1,0,0,49,1,1,1,1,-3.3780191,.032989528,1.4803829,1.2103668,.04186013,.095745817
0,26,0,0,0,122,1,1,1,1,-2.4708908,.077924214,-1.1936034,-1.6112392,.050913643,.076427303
0,62,0,0,0,910,1,1,1,1,-3.2873063,.036009233,-.78300369,-1.0833069,.025159918,.015823532
0,80,1,1,1,580,1,1,1,1,-3.6955142,.024232864,-.45072705,-.626499,.022039518,.0045783399
0,35,0,0,0,617,1,1,1,1,-2.6749945,.064465091,3.2965474,2.5487189,.034024067,.3827706
0,42,0,0,0,722,1,1,1,1,-2.8337421,.055527821,-.16016324,-.16202682,.02363563,.00062098476
0,62,0,0,0,372,1,1,1,1,-3.2873063,.036009233,-.78300369,-1.0833069,.025159918,.015823532
0,56,0,0,0,883,1,1,1,1,-3.151237,.041042563,-.93708533,-1.2947369,.025219483,.022718918
0,77,1,1,1,223,1,1,1,1,-3.6274796,.025894739,-.66593724,-.91626912,.040910844,.018916732
1,32,0,0,0,12,1,1,1,1,-2.6069601,.068691835,-.22443812,-.22744678,.036114864,.0018873564
0,64,0,0,0,952,1,1,1,1,-3.3326628,.034467503,.38739118,.35740265,.033868484,.0052608876
0,23,0,0,0,626,1,1,1,1,-2.4028561,.082955167,-1.2015532,-1.6118212,.06015088,.092399552
0,68,1,0,0,379,1,1,1,1,-3.4233756,.031572852,2.0640984,1.5713472,.033162519,.14613518
0,72,1,1,0,158,1,1,1,1,-3.5140884,.028914018,-.78940398,-1.0833331,.044386759,.028944757
0,63,0,0,0,931,1,1,1,1,-3.3099844,.035230245,.47476524,.43244463,.029378761,.0068224678
0,55,0,0,0,887,1,1,1,1,-3.1285589,.041944481,1.0408324,.86569732,.010972003,.012018187
0,22,0,0,0,857,1,1,1,1,-2.3801777,.084696777,.50694144,.46319354,.073555008,.020403665
0,67,1,0,0,677,1,1,1,1,-3.4006975,.032273676,.69469565,.60815483,.030159049,.015007429
0,56,0,0,0,288,1,1,1,1,-3.151237,.041042563,-.93708533,-1.2947369,.025219483,.022718918
0,56,0,0,0,701,1,1,1,1,-3.151237,.041042563,-.93708533,-1.2947369,.025219483,.022718918
0,63,0,0,0,570,1,1,1,1,-3.3099844,.035230245,.47476524,.43244463,.029378761,.0068224678
0,63,0,0,0,948,1,1,1,1,-3.3099844,.035230245,.47476524,.43244463,.029378761,.0068224678
0,48,0,0,0,858,1,1,1,1,-2.9698114,.048808482,-.88427854,-1.2252328,.015670728,.012448784
0,56,0,0,0,901,1,1,1,1,-3.151237,.041042563,-.93708533,-1.2947369,.025219483,.022718918
0,73,1,1,0,300,1,1,1,1,-3.5367668,.028284017,-.84061849,-1.1488338,.052603658,.039235767
0,56,0,0,0,399,1,1,1,1,-3.151237,.041042563,-.93708533,-1.2947369,.025219483,.022718918
0,27,0,0,0,483,1,1,1,1,-2.4935689,.076310255,-1.3250179,-1.7818983,.058883686,.10984876
0,36,0,0,0,232,1,1,1,1,-2.6976728,.063110821,-1.0510017,-1.4443299,.024272041,.027477954
0,53,0,0,0,77,1,1,1,1,-3.0832024,.04380548,.89720231,.79626429,.028662452,.023753298
0,52,0,0,0,848,1,1,1,1,-3.0605242,.044765282,-.87375426,-1.2105957,.017861784,.013884518
0,35,0,0,0,134,1,1,1,1,-2.6749945,.064465091,3.2965474,2.5487189,.034024067,.3827706
0,76,1,1,1,790,1,1,1,1,-3.6048014,.026472971,-.69477385,-.95509654,.04232822,.021335373
0,34,0,0,0,456,1,1,1,1,-2.6523163,.065846384,-.39323047,-.40711185,.038186379,.0061392016
0,35,0,0,0,963,1,1,1,1,-2.6749945,.064465091,3.2965474,2.5487189,.034024067,.3827706
0,42,0,0,0,947,1,1,1,1,-2.8337421,.055527821,-.16016324,-.16202682,.02363563,.00062098476
0,34,0,0,0,297,1,1,1,1,-2.6523163,.065846384,-.39323047,-.40711185,.038186379,.0061392016
0,34,0,0,0,650,1,1,1,1,-2.6523163,.065846384,-.39323047,-.40711185,.038186379,.0061392016
1,61,0,0,0,26,1,1,1,1,-3.2646282,.036804788,2.4275563,1.8710856,.03483719,.21270669
1,64,0,0,0,5,1,1,1,1,-3.3326628,.034467503,.38739118,.35740265,.033868484,.0052608876
0,59,0,0,0,773,1,1,1,1,-3.2192717,.0384469,-.63682103,-.88549972,.014053603,.0057805497
0,27,0,0,0,160,1,1,1,1,-2.4935689,.076310255,-1.3250179,-1.7818983,.058883686,.10984876
0,58,0,0,0,240,1,1,1,1,-3.1965935,.039294116,-.61045402,-.84945011,.012189324,.0045984536
0,72,1,1,0,801,1,1,1,1,-3.5140884,.028914018,-.78940398,-1.0833331,.044386759,.028944757
0,53,0,0,0,729,1,1,1,1,-3.0832024,.04380548,.89720231,.79626429,.028662452,.023753298
0,48,0,0,0,958,1,1,1,1,-2.9698114,.048808482,-.88427854,-1.2252328,.015670728,.012448784
0,37,0,0,0,100,1,1,1,1,-2.720351,.061783116,-.11117639,-.11154097,.025660427,.0003255207
0,65,1,0,0,484,1,1,1,1,-3.355341,.033720702,2.0517354,1.5692018,.028097693,.12170004
0,48,0,0,0,358,1,1,1,1,-2.9698114,.048808482,-.88427854,-1.2252328,.015670728,.012448784
0,26,0,0,0,486,1,1,1,1,-2.4708908,.077924214,-1.1936034,-1.6112392,.050913643,.076427303
0,59,0,0,0,513,1,1,1,1,-3.2192717,.0384469,-.63682103,-.88549972,.014053603,.0057805497
0,52,0,0,0,154,1,1,1,1,-3.0605242,.044765282,-.87375426,-1.2105957,.017861784,.013884518
0,34,0,0,0,719,1,1,1,1,-2.6523163,.065846384,-.39323047,-.40711185,.038186379,.0061392016
0,27,0,0,0,427,1,1,1,1,-2.4935689,.076310255,-1.3250179,-1.7818983,.058883686,.10984876
0,66,1,0,0,60,1,1,1,1,-3.3780191,.032989528,1.4803829,1.2103668,.04186013,.095745817
0,44,0,0,0,562,1,1,1,1,-2.8790984,.053196523,-.011085807,-.010991051,.020312818,2.5481054e-06
1,33,0,0,0,14,1,1,1,1,-2.6296382,.067255147,2.0819867,1.6895158,.027963966,.12470168
0,73,1,1,0,335,1,1,1,1,-3.5367668,.028284017,-.84061849,-1.1488338,.052603658,.039235767
0,74,1,1,0,502,1,1,1,1,-3.5594449,.027667351,-.68782216,-.94754088,.037678074,.018523397
0,60,0,0,0,817,1,1,1,1,-3.24195,.037617236,-.74741966,-1.0361489,.020424202,.01164759
1,28,0,0,0,32,1,1,1,1,-2.516247,.074727021,.88140464,.78405893,.040860284,.033095594
0,62,0,0,0,147,1,1,1,1,-3.2873063,.036009233,-.78300369,-1.0833069,.025159918,.015823532
0,73,1,1,0,542,1,1,1,1,-3.5367668,.028284017,-.84061849,-1.1488338,.052603658,.039235767
0,60,0,0,0,733,1,1,1,1,-3.24195,.037617236,-.74741966,-1.0361489,.020424202,.01164759
0,60,0,0,0,121,1,1,1,1,-3.24195,.037617236,-.74741966,-1.0361489,.020424202,.01164759
0,65,1,0,0,569,1,1,1,1,-3.355341,.033720702,2.0517354,1.5692018,.028097693,.12170004
0,73,1,1,0,802,1,1,1,1,-3.5367668,.028284017,-.84061849,-1.1488338,.052603658,.039235767
0,60,0,0,0,571,1,1,1,1,-3.24195,.037617236,-.74741966,-1.0361489,.020424202,.01164759
0,24,0,0,0,861,1,1,1,1,-2.4255342,.08124619,-1.2667462,-1.6973689,.063142307,.10814986
0,65,1,0,0,659,1,1,1,1,-3.355341,.033720702,2.0517354,1.5692018,.028097693,.12170004
0,32,0,0,0,412,1,1,1,1,-2.6069601,.068691835,-.22443812,-.22744678,.036114864,.0018873564
0,36,0,0,0,203,1,1,1,1,-2.6976728,.063110821,-1.0510017,-1.4443299,.024272041,.027477954
0,48,0,0,0,438,1,1,1,1,-2.9698114,.048808482,-.88427854,-1.2252328,.015670728,.012448784
0,53,0,0,0,228,1,1,1,1,-3.0832024,.04380548,.89720231,.79626429,.028662452,.023753298
0,71,1,1,0,871,1,1,1,1,-3.4914103,.029557625,-.75520259,-1.0392869,.038730126,.022978967
0,46,0,0,0,518,1,1,1,1,-2.9244549,.050957825,-.80777258,-1.120379,.012519839,.0082727252
0,73,1,1,0,829,1,1,1,1,-3.5367668,.028284017,-.84061849,-1.1488338,.052603658,.039235767
0,61,0,0,0,333,1,1,1,1,-3.2646282,.036804788,2.4275563,1.8710856,.03483719,.21270669
1,20,0,0,0,7,1,1,1,1,-2.3348215,.088279836,.13405108,.12816696,.050262347,.00095099828
0,54,0,0,0,62,1,1,1,1,-3.1058807,.042865336,-.82697612,-1.1464447,.017712787,.012332024
0,61,0,0,0,909,1,1,1,1,-3.2646282,.036804788,2.4275563,1.8710856,.03483719,.21270669
0,38,0,0,0,403,1,1,1,1,-2.7430291,.060481545,.10152122,.098954938,.020180251,.00021227266
0,76,1,1,1,503,1,1,1,1,-3.6048014,.026472971,-.69477385,-.95509654,.04232822,.021335373
0,67,1,0,0,406,1,1,1,1,-3.4006975,.032273676,.69469565,.60815483,.030159049,.015007429
0,49,0,0,0,388,1,1,1,1,-2.9924896,.047766324,.10044882,.097899303,.020037131,.00020630777
0,74,1,1,0,407,1,1,1,1,-3.5594449,.027667351,-.68782216,-.94754088,.037678074,.018523397
0,26,0,0,0,949,1,1,1,1,-2.4708908,.077924214,-1.1936034,-1.6112392,.050913643,.076427303
0,61,0,0,0,827,1,1,1,1,-3.2646282,.036804788,2.4275563,1.8710856,.03483719,.21270669
0,20,0,0,0,423,1,1,1,1,-2.3348215,.088279836,.13405108,.12816696,.050262347,.00095099828
0,45,0,0,0,714,1,1,1,1,-2.9017768,.052065805,.2565752,.24445529,.015789011,.0010560781
0,35,0,0,0,239,1,1,1,1,-2.6749945,.064465091,3.2965474,2.5487189,.034024067,.3827706
0,76,1,1,1,642,1,1,1,1,-3.6048014,.026472971,-.69477385,-.95509654,.04232822,.021335373
0,62,0,0,0,432,1,1,1,1,-3.2873063,.036009233,-.78300369,-1.0833069,.025159918,.015823532
0,21,0,0,0,756,1,1,1,1,-2.3574996,.086471505,-1.2355903,-1.6471859,.069978096,.114873
0,68,1,0,0,54,1,1,1,1,-3.4233756,.031572852,2.0640984,1.5713472,.033162519,.14613518
0,39,0,0,0,797,1,1,1,1,-2.7657075,.059205659,.55012208,.50036961,.012757586,.0039107748
0,24,0,0,0,365,1,1,1,1,-2.4255342,.08124619,-1.2667462,-1.6973689,.063142307,.10814986
0,65,1,0,0,61,1,1,1,1,-3.355341,.033720702,2.0517354,1.5692018,.028097693,.12170004
0,66,1,0,0,96,1,1,1,1,-3.3780191,.032989528,1.4803829,1.2103668,.04186013,.095745817
0,62,0,0,0,966,1,1,1,1,-3.2873063,.036009233,-.78300369,-1.0833069,.025159918,.015823532
0,75,1,1,1,687,1,1,1,1,-3.582123,.027063757,-.70227689,-.96584088,.041182678,.02118339
0,22,0,0,0,83,1,1,1,1,-2.3801777,.084696777,.50694144,.46319354,.073555008,.020403665
0,75,1,1,1,259,1,1,1,1,-3.582123,.027063757,-.70227689,-.96584088,.041182678,.02118339
0,56,0,0,0,245,1,1,1,1,-3.151237,.041042563,-.93708533,-1.2947369,.025219483,.022718918
0,34,0,0,0,636,1,1,1,1,-2.6523163,.065846384,-.39323047,-.40711185,.038186379,.0061392016
0,21,0,0,0,56,1,1,1,1,-2.3574996,.086471505,-1.2355903,-1.6471859,.069978096,.114873
0,56,0,0,0,437,1,1,1,1,-3.151237,.041042563,-.93708533,-1.2947369,.025219483,.022718918
1,35,0,0,0,17,1,1,1,1,-2.6749945,.064465091,3.2965474,2.5487189,.034024067,.3827706
0,61,0,0,0,988,1,1,1,1,-3.2646282,.036804788,2.4275563,1.8710856,.03483719,.21270669
0,75,1,1,1,957,1,1,1,1,-3.582123,.027063757,-.70227689,-.96584088,.041182678,.02118339
0,64,0,0,0,79,1,1,1,1,-3.3326628,.034467503,.38739118,.35740265,.033868484,.0052608876
0,63,0,0,0,567,1,1,1,1,-3.3099844,.035230245,.47476524,.43244463,.029378761,.0068224678
0,73,1,1,0,386,1,1,1,1,-3.5367668,.028284017,-.84061849,-1.1488338,.052603658,.039235767
0,73,1,1,0,426,1,1,1,1,-3.5367668,.028284017,-.84061849,-1.1488338,.052603658,.039235767
1,68,1,0,0,36,1,1,1,1,-3.4233756,.031572852,2.0640984,1.5713472,.033162519,.14613518
0,65,1,0,0,266,1,1,1,1,-3.355341,.033720702,2.0517354,1.5692018,.028097693,.12170004
0,66,1,0,0,964,1,1,1,1,-3.3780191,.032989528,1.4803829,1.2103668,.04186013,.095745817
0,42,0,0,0,63,1,1,1,1,-2.8337421,.055527821,-.16016324,-.16202682,.02363563,.00062098476
0,76,1,1,1,191,1,1,1,1,-3.6048014,.026472971,-.69477385,-.95509654,.04232822,.021335373
0,63,0,0,0,303,1,1,1,1,-3.3099844,.035230245,.47476524,.43244463,.029378761,.0068224678
0,71,1,1,0,682,1,1,1,1,-3.4914103,.029557625,-.75520259,-1.0392869,.038730126,.022978967
0,70,1,1,0,835,1,1,1,1,-3.4687321,.030215112,.58246291,.51772976,.039600868,.013989089
0,34,0,0,0,431,1,1,1,1,-2.6523163,.065846384,-.39323047,-.40711185,.038186379,.0061392016
0,64,0,0,0,294,1,1,1,1,-3.3326628,.034467503,.38739118,.35740265,.033868484,.0052608876
0,25,0,0,0,751,1,1,1,1,-2.4482124,.07956937,-1.0846245,-1.4682488,.044700932,.055047307
0,77,1,1,1,764,1,1,1,1,-3.6274796,.025894739,-.66593724,-.91626912,.040910844,.018916732
0,64,0,0,0,464,1,1,1,1,-3.3326628,.034467503,.38739118,.35740265,.033868484,.0052608876
0,43,0,0,0,681,1,1,1,1,-2.8564203,.054350391,-.08677157,-.086935021,.021864908,.0001683076
0,27,0,0,0,222,1,1,1,1,-2.4935689,.076310255,-1.3250179,-1.7818983,.058883686,.10984876
0,20,0,0,0,573,1,1,1,1,-2.3348215,.088279836,.13405108,.12816696,.050262347,.00095099828
0,73,1,1,0,638,1,1,1,1,-3.5367668,.028284017,-.84061849,-1.1488338,.052603658,.039235767
0,71,1,1,0,664,1,1,1,1,-3.4914103,.029557625,-.75520259,-1.0392869,.038730126,.022978967
0,42,0,0,0,960,1,1,1,1,-2.8337421,.055527821,-.16016324,-.16202682,.02363563,.00062098476
0,25,0,0,0,491,1,1,1,1,-2.4482124,.07956937,-1.0846245,-1.4682488,.044700932,.055047307
0,37,0,0,0,987,1,1,1,1,-2.720351,.061783116,-.11117639,-.11154097,.025660427,.0003255207
0,45,0,0,0,605,1,1,1,1,-2.9017768,.052065805,.2565752,.24445529,.015789011,.0010560781
0,64,0,0,0,142,1,1,1,1,-3.3326628,.034467503,.38739118,.35740265,.033868484,.0052608876
0,64,0,0,0,853,1,1,1,1,-3.3326628,.034467503,.38739118,.35740265,.033868484,.0052608876
0,64,0,0,0,210,1,1,1,1,-3.3326628,.034467503,.38739118,.35740265,.033868484,.0052608876
0,61,0,0,0,488,1,1,1,1,-3.2646282,.036804788,2.4275563,1.8710856,.03483719,.21270669
0,28,0,0,0,615,1,1,1,1,-2.516247,.074727021,.88140464,.78405893,.040860284,.033095594
0,30,0,0,0,462,1,1,1,1,-2.5616035,.071650811,-.3845064,-.39558893,.046680178,.0072393739
0,65,1,0,0,798,1,1,1,1,-3.355341,.033720702,2.0517354,1.5692018,.028097693,.12170004
0,27,0,0,0,906,1,1,1,1,-2.4935689,.076310255,-1.3250179,-1.7818983,.058883686,.10984876
0,56,0,0,0,144,1,1,1,1,-3.151237,.041042563,-.93708533,-1.2947369,.025219483,.022718918
0,22,0,0,0,709,1,1,1,1,-2.3801777,.084696777,.50694144,.46319354,.073555008,.020403665
0,36,0,0,0,81,1,1,1,1,-2.6976728,.063110821,-1.0510017,-1.4443299,.024272041,.027477954
0,61,0,0,0,271,1,1,1,1,-3.2646282,.036804788,2.4275563,1.8710856,.03483719,.21270669
0,51,0,0,0,558,1,1,1,1,-3.0378461,.045745105,-.91123199,-1.2617574,.018543068,.015688024
0,36,0,0,0,972,1,1,1,1,-2.6976728,.063110821,-1.0510017,-1.4443299,.024272041,.027477954
0,49,0,0,0,679,1,1,1,1,-2.9924896,.047766324,.10044882,.097899303,.020037131,.00020630777
0,57,0,0,0,348,1,1,1,1,-3.1739154,.040159222,1.0905881,.89812827,.011755371,.014147945
0,27,0,0,0,401,1,1,1,1,-2.4935689,.076310255,-1.3250179,-1.7818983,.058883686,.10984876
0,66,1,0,0,74,1,1,1,1,-3.3780191,.032989528,1.4803829,1.2103668,.04186013,.095745817
0,41,0,0,0,230,1,1,1,1,-2.8110638,.056729227,-1.1653094,-1.6030232,.025659703,.035762135
0,47,0,0,0,367,1,1,1,1,-2.9471331,.049872182,1.4966724,1.2422001,.015612422,.035526924
0,79,1,1,1,71,1,1,1,1,-3.6728361,.024774931,-.65172631,-.89598203,.043032654,.019099917
0,49,0,0,0,942,1,1,1,1,-2.9924896,.047766324,.10044882,.097899303,.020037131,.00020630777
0,66,1,0,0,447,1,1,1,1,-3.3780191,.032989528,1.4803829,1.2103668,.04186013,.095745817
0,78,1,1,1,499,1,1,1,1,-3.6501577,.025328808,-.72087216,-.98736715,.049846642,.027262064
0,66,1,0,0,151,1,1,1,1,-3.3780191,.032989528,1.4803829,1.2103668,.04186013,.095745817
0,24,0,0,0,246,1,1,1,1,-2.4255342,.08124619,-1.2667462,-1.6973689,.063142307,.10814986
1,66,1,0,0,34,1,1,1,1,-3.3780191,.032989528,1.4803829,1.2103668,.04186013,.095745817
0,66,1,0,0,753,1,1,1,1,-3.3780191,.032989528,1.4803829,1.2103668,.04186013,.095745817
0,30,0,0,0,299,1,1,1,1,-2.5616035,.071650811,-.3845064,-.39558893,.046680178,.0072393739
0,75,1,1,1,934,1,1,1,1,-3.582123,.027063757,-.70227689,-.96584088,.041182678,.02118339
0,43,0,0,0,575,1,1,1,1,-2.8564203,.054350391,-.08677157,-.086935021,.021864908,.0001683076
0,54,0,0,0,706,1,1,1,1,-3.1058807,.042865336,-.82697612,-1.1464447,.017712787,.012332024
0,74,1,1,0,295,1,1,1,1,-3.5594449,.027667351,-.68782216,-.94754088,.037678074,.018523397
0,66,1,0,0,537,1,1,1,1,-3.3780191,.032989528,1.4803829,1.2103668,.04186013,.095745817
0,45,0,0,0,618,1,1,1,1,-2.9017768,.052065805,.2565752,.24445529,.015789011,.0010560781
0,30,0,0,0,415,1,1,1,1,-2.5616035,.071650811,-.3845064,-.39558893,.046680178,.0072393739
0,20,0,0,0,812,1,1,1,1,-2.3348215,.088279836,.13405108,.12816696,.050262347,.00095099828
0,53,0,0,0,563,1,1,1,1,-3.0832024,.04380548,.89720231,.79626429,.028662452,.023753298
0,24,0,0,0,828,1,1,1,1,-2.4255342,.08124619,-1.2667462,-1.6973689,.063142307,.10814986
0,51,0,0,0,448,1,1,1,1,-3.0378461,.045745105,-.91123199,-1.2617574,.018543068,.015688024
0,51,0,0,0,106,1,1,1,1,-3.0378461,.045745105,-.91123199,-1.2617574,.018543068,.015688024
0,24,0,0,0,165,1,1,1,1,-2.4255342,.08124619,-1.2667462,-1.6973689,.063142307,.10814986
0,67,1,0,0,973,1,1,1,1,-3.4006975,.032273676,.69469565,.60815483,.030159049,.015007429
0,41,0,0,0,863,1,1,1,1,-2.8110638,.056729227,-1.1653094,-1.6030232,.025659703,.035762135
0,70,1,1,0,328,1,1,1,1,-3.4687321,.030215112,.58246291,.51772976,.039600868,.013989089
0,56,0,0,0,309,1,1,1,1,-3.151237,.041042563,-.93708533,-1.2947369,.025219483,.022718918
0,67,1,0,0,167,1,1,1,1,-3.4006975,.032273676,.69469565,.60815483,.030159049,.015007429
0,47,0,0,0,251,1,1,1,1,-2.9471331,.049872182,1.4966724,1.2422001,.015612422,.035526924
0,64,0,0,0,721,1,1,1,1,-3.3326628,.034467503,.38739118,.35740265,.033868484,.0052608876
0,73,1,1,0,998,1,1,1,1,-3.5367668,.028284017,-.84061849,-1.1488338,.052603658,.039235767
1,67,1,0,0,16,1,1,1,1,-3.4006975,.032273676,.69469565,.60815483,.030159049,.015007429
0,51,0,0,0,976,1,1,1,1,-3.0378461,.045745105,-.91123199,-1.2617574,.018543068,.015688024
0,67,1,0,0,362,1,1,1,1,-3.4006975,.032273676,.69469565,.60815483,.030159049,.015007429
0,59,0,0,0,557,1,1,1,1,-3.2192717,.0384469,-.63682103,-.88549972,.014053603,.0057805497
0,67,1,0,0,345,1,1,1,1,-3.4006975,.032273676,.69469565,.60815483,.030159049,.015007429
0,41,0,0,0,389,1,1,1,1,-2.8110638,.056729227,-1.1653094,-1.6030232,.025659703,.035762135
0,73,1,1,0,452,1,1,1,1,-3.5367668,.028284017,-.84061849,-1.1488338,.052603658,.039235767
0,41,0,0,0,937,1,1,1,1,-2.8110638,.056729227,-1.1653094,-1.6030232,.025659703,.035762135
0,68,1,0,0,175,1,1,1,1,-3.4233756,.031572852,2.0640984,1.5713472,.033162519,.14613518
0,39,0,0,0,123,1,1,1,1,-2.7657075,.059205659,.55012208,.50036961,.012757586,.0039107748
0,68,1,0,0,651,1,1,1,1,-3.4233756,.031572852,2.0640984,1.5713472,.033162519,.14613518
0,51,0,0,0,908,1,1,1,1,-3.0378461,.045745105,-.91123199,-1.2617574,.018543068,.015688024
0,72,1,1,0,428,1,1,1,1,-3.5140884,.028914018,-.78940398,-1.0833331,.044386759,.028944757
0,68,1,0,0,856,1,1,1,1,-3.4233756,.031572852,2.0640984,1.5713472,.033162519,.14613518
0,29,0,0,0,369,1,1,1,1,-2.5389254,.073174022,-1.1473061,-1.559379,.040333878,.055323344
0,40,0,0,0,898,1,1,1,1,-2.7883856,.05795503,.078573674,.076881409,.019460255,.00012252858
0,72,1,1,0,589,1,1,1,1,-3.5140884,.028914018,-.78940398,-1.0833331,.044386759,.028944757
0,25,0,0,0,425,1,1,1,1,-2.4482124,.07956937,-1.0846245,-1.4682488,.044700932,.055047307
0,23,0,0,0,885,1,1,1,1,-2.4028561,.082955167,-1.2015532,-1.6118212,.06015088,.092399552
0,63,0,0,0,317,1,1,1,1,-3.3099844,.035230245,.47476524,.43244463,.029378761,.0068224678
0,44,0,0,0,480,1,1,1,1,-2.8790984,.053196523,-.011085807,-.010991051,.020312818,2.5481054e-06
0,35,0,0,0,702,1,1,1,1,-2.6749945,.064465091,3.2965474,2.5487189,.034024067,.3827706
0,61,0,0,0,633,1,1,1,1,-3.2646282,.036804788,2.4275563,1.8710856,.03483719,.21270669
0,25,0,0,0,429,1,1,1,1,-2.4482124,.07956937,-1.0846245,-1.4682488,.044700932,.055047307
0,72,1,1,0,795,1,1,1,1,-3.5140884,.028914018,-.78940398,-1.0833331,.044386759,.028944757
0,36,0,0,0,55,1,1,1,1,-2.6976728,.063110821,-1.0510017,-1.4443299,.024272041,.027477954
0,69,1,0,0,982,1,1,1,1,-3.4460537,.03088676,1.5511549,1.1686599,.01613782,.039465796
0,24,0,0,0,582,1,1,1,1,-2.4255342,.08124619,-1.2667462,-1.6973689,.063142307,.10814986
0,33,0,0,0,465,1,1,1,1,-2.6296382,.067255147,2.0819867,1.6895158,.027963966,.12470168
0,67,1,0,0,156,1,1,1,1,-3.4006975,.032273676,.69469565,.60815483,.030159049,.015007429
0,27,0,0,0,587,1,1,1,1,-2.4935689,.076310255,-1.3250179,-1.7818983,.058883686,.10984876
0,49,0,0,0,658,1,1,1,1,-2.9924896,.047766324,.10044882,.097899303,.020037131,.00020630777
0,57,0,0,0,450,1,1,1,1,-3.1739154,.040159222,1.0905881,.89812827,.011755371,.014147945
0,80,1,1,1,873,1,1,1,1,-3.6955142,.024232864,-.45072705,-.626499,.022039518,.0045783399
0,73,1,1,0,344,1,1,1,1,-3.5367668,.028284017,-.84061849,-1.1488338,.052603658,.039235767
0,70,1,1,0,371,1,1,1,1,-3.4687321,.030215112,.58246291,.51772976,.039600868,.013989089
0,52,0,0,0,202,1,1,1,1,-3.0605242,.044765282,-.87375426,-1.2105957,.017861784,.013884518
0,78,1,1,1,487,1,1,1,1,-3.6501577,.025328808,-.72087216,-.98736715,.049846642,.027262064
0,70,1,1,0,517,1,1,1,1,-3.4687321,.030215112,.58246291,.51772976,.039600868,.013989089
0,42,0,0,0,547,1,1,1,1,-2.8337421,.055527821,-.16016324,-.16202682,.02363563,.00062098476
0,57,0,0,0,888,1,1,1,1,-3.1739154,.040159222,1.0905881,.89812827,.011755371,.014147945
0,44,0,0,0,435,1,1,1,1,-2.8790984,.053196523,-.011085807,-.010991051,.020312818,2.5481054e-06
0,70,1,1,0,741,1,1,1,1,-3.4687321,.030215112,.58246291,.51772976,.039600868,.013989089
0,52,0,0,0,717,1,1,1,1,-3.0605242,.044765282,-.87375426,-1.2105957,.017861784,.013884518
0,75,1,1,1,377,1,1,1,1,-3.582123,.027063757,-.70227689,-.96584088,.041182678,.02118339
0,53,0,0,0,248,1,1,1,1,-3.0832024,.04380548,.89720231,.79626429,.028662452,.023753298
0,42,0,0,0,497,1,1,1,1,-2.8337421,.055527821,-.16016324,-.16202682,.02363563,.00062098476
0,64,0,0,0,479,1,1,1,1,-3.3326628,.034467503,.38739118,.35740265,.033868484,.0052608876
0,46,0,0,0,552,1,1,1,1,-2.9244549,.050957825,-.80777258,-1.120379,.012519839,.0082727252
0,60,0,0,0,216,1,1,1,1,-3.24195,.037617236,-.74741966,-1.0361489,.020424202,.01164759
0,36,0,0,0,258,1,1,1,1,-2.6976728,.063110821,-1.0510017,-1.4443299,.024272041,.027477954
0,62,0,0,0,413,1,1,1,1,-3.2873063,.036009233,-.78300369,-1.0833069,.025159918,.015823532
0,71,1,1,0,938,1,1,1,1,-3.4914103,.029557625,-.75520259,-1.0392869,.038730126,.022978967
0,27,0,0,0,57,1,1,1,1,-2.4935689,.076310255,-1.3250179,-1.7818983,.058883686,.10984876
0,77,1,1,1,864,1,1,1,1,-3.6274796,.025894739,-.66593724,-.91626912,.040910844,.018916732
0,67,1,0,0,757,1,1,1,1,-3.4006975,.032273676,.69469565,.60815483,.030159049,.015007429
0,71,1,1,0,327,1,1,1,1,-3.4914103,.029557625,-.75520259,-1.0392869,.038730126,.022978967
0,37,0,0,0,565,1,1,1,1,-2.720351,.061783116,-.11117639,-.11154097,.025660427,.0003255207
0,21,0,0,0,138,1,1,1,1,-2.3574996,.086471505,-1.2355903,-1.6471859,.069978096,.114873
0,51,0,0,0,900,1,1,1,1,-3.0378461,.045745105,-.91123199,-1.2617574,.018543068,.015688024
0,71,1,1,0,381,1,1,1,1,-3.4914103,.029557625,-.75520259,-1.0392869,.038730126,.022978967
0,41,0,0,0,127,1,1,1,1,-2.8110638,.056729227,-1.1653094,-1.6030232,.025659703,.035762135
0,28,0,0,0,276,1,1,1,1,-2.516247,.074727021,.88140464,.78405893,.040860284,.033095594
0,48,0,0,0,461,1,1,1,1,-2.9698114,.048808482,-.88427854,-1.2252328,.015670728,.012448784
0,61,0,0,0,886,1,1,1,1,-3.2646282,.036804788,2.4275563,1.8710856,.03483719,.21270669
0,22,0,0,0,392,1,1,1,1,-2.3801777,.084696777,.50694144,.46319354,.073555008,.020403665
0,47,0,0,0,301,1,1,1,1,-2.9471331,.049872182,1.4966724,1.2422001,.015612422,.035526924
0,72,1,1,0,895,1,1,1,1,-3.5140884,.028914018,-.78940398,-1.0833331,.044386759,.028944757
0,21,0,0,0,92,1,1,1,1,-2.3574996,.086471505,-1.2355903,-1.6471859,.069978096,.114873
0,72,1,1,0,791,1,1,1,1,-3.5140884,.028914018,-.78940398,-1.0833331,.044386759,.028944757
0,28,0,0,0,255,1,1,1,1,-2.516247,.074727021,.88140464,.78405893,.040860284,.033095594
0,62,0,0,0,735,1,1,1,1,-3.2873063,.036009233,-.78300369,-1.0833069,.025159918,.015823532
0,72,1,1,0,458,1,1,1,1,-3.5140884,.028914018,-.78940398,-1.0833331,.044386759,.028944757
0,79,1,1,1,457,1,1,1,1,-3.6728361,.024774931,-.65172631,-.89598203,.043032654,.019099917
0,42,0,0,0,564,1,1,1,1,-2.8337421,.055527821,-.16016324,-.16202682,.02363563,.00062098476
0,72,1,1,0,841,1,1,1,1,-3.5140884,.028914018,-.78940398,-1.0833331,.044386759,.028944757
0,78,1,1,1,695,1,1,1,1,-3.6501577,.025328808,-.72087216,-.98736715,.049846642,.027262064
0,35,0,0,0,221,1,1,1,1,-2.6749945,.064465091,3.2965474,2.5487189,.034024067,.3827706
0,32,0,0,0,163,1,1,1,1,-2.6069601,.068691835,-.22443812,-.22744678,.036114864,.0018873564
0,26,0,0,0,351,1,1,1,1,-2.4708908,.077924214,-1.1936034,-1.6112392,.050913643,.076427303
0,72,1,1,0,201,1,1,1,1,-3.5140884,.028914018,-.78940398,-1.0833331,.044386759,.028944757
0,29,0,0,0,278,1,1,1,1,-2.5389254,.073174022,-1.1473061,-1.559379,.040333878,.055323344
0,26,0,0,0,540,1,1,1,1,-2.4708908,.077924214,-1.1936034,-1.6112392,.050913643,.076427303
1,22,0,0,0,20,1,1,1,1,-2.3801777,.084696777,.50694144,.46319354,.073555008,.020403665
0,75,1,1,1,149,1,1,1,1,-3.582123,.027063757,-.70227689,-.96584088,.041182678,.02118339
0,73,1,1,0,536,1,1,1,1,-3.5367668,.028284017,-.84061849,-1.1488338,.052603658,.039235767
0,56,0,0,0,418,1,1,1,1,-3.151237,.041042563,-.93708533,-1.2947369,.025219483,.022718918
0,50,0,0,0,944,1,1,1,1,-3.0151677,.046745326,-.73880887,-1.0262601,.011770652,.0065014013
0,71,1,1,0,962,1,1,1,1,-3.4914103,.029557625,-.75520259,-1.0392869,.038730126,.022978967
1,69,1,0,0,31,1,1,1,1,-3.4460537,.03088676,1.5511549,1.1686599,.01613782,.039465796
0,54,0,0,0,352,1,1,1,1,-3.1058807,.042865336,-.82697612,-1.1464447,.017712787,.012332024
0,33,0,0,0,312,1,1,1,1,-2.6296382,.067255147,2.0819867,1.6895158,.027963966,.12470168
0,53,0,0,0,603,1,1,1,1,-3.0832024,.04380548,.89720231,.79626429,.028662452,.023753298
0,37,0,0,0,609,1,1,1,1,-2.720351,.061783116,-.11117639,-.11154097,.025660427,.0003255207
0,28,0,0,0,697,1,1,1,1,-2.516247,.074727021,.88140464,.78405893,.040860284,.033095594
0,43,0,0,0,249,1,1,1,1,-2.8564203,.054350391,-.08677157,-.086935021,.021864908,.0001683076
0,58,0,0,0,324,1,1,1,1,-3.1965935,.039294116,-.61045402,-.84945011,.012189324,.0045984536
0,25,0,0,0,598,1,1,1,1,-2.4482124,.07956937,-1.0846245,-1.4682488,.044700932,.055047307
0,26,0,0,0,405,1,1,1,1,-2.4708908,.077924214,-1.1936034,-1.6112392,.050913643,.076427303
0,70,1,1,0,433,1,1,1,1,-3.4687321,.030215112,.58246291,.51772976,.039600868,.013989089
0,44,0,0,0,162,1,1,1,1,-2.8790984,.053196523,-.011085807,-.010991051,.020312818,2.5481054e-06
0,62,0,0,0,832,1,1,1,1,-3.2873063,.036009233,-.78300369,-1.0833069,.025159918,.015823532
0,50,0,0,0,114,1,1,1,1,-3.0151677,.046745326,-.73880887,-1.0262601,.011770652,.0065014013
0,50,0,0,0,905,1,1,1,1,-3.0151677,.046745326,-.73880887,-1.0262601,.011770652,.0065014013
0,74,1,1,0,244,1,1,1,1,-3.5594449,.027667351,-.68782216,-.94754088,.037678074,.018523397
0,74,1,1,0,870,1,1,1,1,-3.5594449,.027667351,-.68782216,-.94754088,.037678074,.018523397
0,73,1,1,0,556,1,1,1,1,-3.5367668,.028284017,-.84061849,-1.1488338,.052603658,.039235767
0,22,0,0,0,166,1,1,1,1,-2.3801777,.084696777,.50694144,.46319354,.073555008,.020403665
1,35,0,0,0,43,1,1,1,1,-2.6749945,.064465091,3.2965474,2.5487189,.034024067,.3827706
0,44,0,0,0,543,1,1,1,1,-2.8790984,.053196523,-.011085807,-.010991051,.020312818,2.5481054e-06
0,21,0,0,0,102,1,1,1,1,-2.3574996,.086471505,-1.2355903,-1.6471859,.069978096,.114873
0,74,1,1,0,578,1,1,1,1,-3.5594449,.027667351,-.68782216,-.94754088,.037678074,.018523397
0,74,1,1,0,164,1,1,1,1,-3.5594449,.027667351,-.68782216,-.94754088,.037678074,.018523397
0,74,1,1,0,305,1,1,1,1,-3.5594449,.027667351,-.68782216,-.94754088,.037678074,.018523397
0,40,0,0,0,936,1,1,1,1,-2.7883856,.05795503,.078573674,.076881409,.019460255,.00012252858
0,38,0,0,0,935,1,1,1,1,-2.7430291,.060481545,.10152122,.098954938,.020180251,.00021227266
0,21,0,0,0,115,1,1,1,1,-2.3574996,.086471505,-1.2355903,-1.6471859,.069978096,.114873
0,28,0,0,0,357,1,1,1,1,-2.516247,.074727021,.88140464,.78405893,.040860284,.033095594
0,75,1,1,1,807,1,1,1,1,-3.582123,.027063757,-.70227689,-.96584088,.041182678,.02118339
0,75,1,1,1,621,1,1,1,1,-3.582123,.027063757,-.70227689,-.96584088,.041182678,.02118339
0,42,0,0,0,620,1,1,1,1,-2.8337421,.055527821,-.16016324,-.16202682,.02363563,.00062098476
0,78,1,1,1,954,1,1,1,1,-3.6501577,.025328808,-.72087216,-.98736715,.049846642,.027262064
0,75,1,1,1,655,1,1,1,1,-3.582123,.027063757,-.70227689,-.96584088,.041182678,.02118339
0,24,0,0,0,404,1,1,1,1,-2.4255342,.08124619,-1.2667462,-1.6973689,.063142307,.10814986
0,61,0,0,0,813,1,1,1,1,-3.2646282,.036804788,2.4275563,1.8710856,.03483719,.21270669
0,79,1,1,1,759,1,1,1,1,-3.6728361,.024774931,-.65172631,-.89598203,.043032654,.019099917
0,70,1,1,0,375,1,1,1,1,-3.4687321,.030215112,.58246291,.51772976,.039600868,.013989089
0,28,0,0,0,402,1,1,1,1,-2.516247,.074727021,.88140464,.78405893,.040860284,.033095594
0,66,1,0,0,665,1,1,1,1,-3.3780191,.032989528,1.4803829,1.2103668,.04186013,.095745817
0,75,1,1,1,250,1,1,1,1,-3.582123,.027063757,-.70227689,-.96584088,.041182678,.02118339
0,20,0,0,0,782,1,1,1,1,-2.3348215,.088279836,.13405108,.12816696,.050262347,.00095099828
0,42,0,0,0,977,1,1,1,1,-2.8337421,.055527821,-.16016324,-.16202682,.02363563,.00062098476
0,37,0,0,0,749,1,1,1,1,-2.720351,.061783116,-.11117639,-.11154097,.025660427,.0003255207
0,46,0,0,0,256,1,1,1,1,-2.9244549,.050957825,-.80777258,-1.120379,.012519839,.0082727252
0,75,1,1,1,781,1,1,1,1,-3.582123,.027063757,-.70227689,-.96584088,.041182678,.02118339
0,45,0,0,0,424,1,1,1,1,-2.9017768,.052065805,.2565752,.24445529,.015789011,.0010560781
0,40,0,0,0,75,1,1,1,1,-2.7883856,.05795503,.078573674,.076881409,.019460255,.00012252858
1,17,0,0,0,2,1,1,1,1,-2.2667868,.093911275,4.4205317,3.0759745,.012507284,.24750169
0,74,1,1,0,88,1,1,1,1,-3.5594449,.027667351,-.68782216,-.94754088,.037678074,.018523397
0,53,0,0,0,268,1,1,1,1,-3.0832024,.04380548,.89720231,.79626429,.028662452,.023753298
0,34,0,0,0,862,1,1,1,1,-2.6523163,.065846384,-.39323047,-.40711185,.038186379,.0061392016
0,76,1,1,1,528,1,1,1,1,-3.6048014,.026472971,-.69477385,-.95509654,.04232822,.021335373
0,70,1,1,0,192,1,1,1,1,-3.4687321,.030215112,.58246291,.51772976,.039600868,.013989089
0,21,0,0,0,893,1,1,1,1,-2.3574996,.086471505,-1.2355903,-1.6471859,.069978096,.114873
0,38,0,0,0,66,1,1,1,1,-2.7430291,.060481545,.10152122,.098954938,.020180251,.00021227266
0,71,1,1,0,340,1,1,1,1,-3.4914103,.029557625,-.75520259,-1.0392869,.038730126,.022978967
1,55,0,0,0,27,1,1,1,1,-3.1285589,.041944481,1.0408324,.86569732,.010972003,.012018187
0,33,0,0,0,129,1,1,1,1,-2.6296382,.067255147,2.0819867,1.6895158,.027963966,.12470168
0,74,1,1,0,116,1,1,1,1,-3.5594449,.027667351,-.68782216,-.94754088,.037678074,.018523397
0,59,0,0,0,711,1,1,1,1,-3.2192717,.0384469,-.63682103,-.88549972,.014053603,.0057805497
0,35,0,0,0,604,1,1,1,1,-2.6749945,.064465091,3.2965474,2.5487189,.034024067,.3827706
0,31,0,0,0,243,1,1,1,1,-2.5842817,.070156895,-.92205137,-1.2650167,.023790155,.020718785
0,38,0,0,0,85,1,1,1,1,-2.7430291,.060481545,.10152122,.098954938,.020180251,.00021227266
0,77,1,1,1,530,1,1,1,1,-3.6274796,.025894739,-.66593724,-.91626912,.040910844,.018916732
0,42,0,0,0,792,1,1,1,1,-2.8337421,.055527821,-.16016324,-.16202682,.02363563,.00062098476
0,70,1,1,0,400,1,1,1,1,-3.4687321,.030215112,.58246291,.51772976,.039600868,.013989089
0,77,1,1,1,206,1,1,1,1,-3.6274796,.025894739,-.66593724,-.91626912,.040910844,.018916732
0,53,0,0,0,593,1,1,1,1,-3.0832024,.04380548,.89720231,.79626429,.028662452,.023753298
0,34,0,0,0,140,1,1,1,1,-2.6523163,.065846384,-.39323047,-.40711185,.038186379,.0061392016
0,42,0,0,0,254,1,1,1,1,-2.8337421,.055527821,-.16016324,-.16202682,.02363563,.00062098476
0,66,1,0,0,639,1,1,1,1,-3.3780191,.032989528,1.4803829,1.2103668,.04186013,.095745817
0,65,1,0,0,716,1,1,1,1,-3.355341,.033720702,2.0517354,1.5692018,.028097693,.12170004
0,77,1,1,1,911,1,1,1,1,-3.6274796,.025894739,-.66593724,-.91626912,.040910844,.018916732
0,49,0,0,0,950,1,1,1,1,-2.9924896,.047766324,.10044882,.097899303,.020037131,.00020630777
0,39,0,0,0,708,1,1,1,1,-2.7657075,.059205659,.55012208,.50036961,.012757586,.0039107748
0,54,0,0,0,585,1,1,1,1,-3.1058807,.042865336,-.82697612,-1.1464447,.017712787,.012332024
0,70,1,1,0,186,1,1,1,1,-3.4687321,.030215112,.58246291,.51772976,.039600868,.013989089
0,72,1,1,0,310,1,1,1,1,-3.5140884,.028914018,-.78940398,-1.0833331,.044386759,.028944757
0,72,1,1,0,65,1,1,1,1,-3.5140884,.028914018,-.78940398,-1.0833331,.044386759,.028944757
0,55,0,0,0,455,1,1,1,1,-3.1285589,.041944481,1.0408324,.86569732,.010972003,.012018187
0,51,0,0,0,489,1,1,1,1,-3.0378461,.045745105,-.91123199,-1.2617574,.018543068,.015688024
0,60,0,0,0,172,1,1,1,1,-3.24195,.037617236,-.74741966,-1.0361489,.020424202,.01164759
0,48,0,0,0,417,1,1,1,1,-2.9698114,.048808482,-.88427854,-1.2252328,.015670728,.012448784
0,69,1,0,0,678,1,1,1,1,-3.4460537,.03088676,1.5511549,1.1686599,.01613782,.039465796
0,77,1,1,1,194,1,1,1,1,-3.6274796,.025894739,-.66593724,-.91626912,.040910844,.018916732
1,61,0,0,0,15,1,1,1,1,-3.2646282,.036804788,2.4275563,1.8710856,.03483719,.21270669
0,79,1,1,1,141,1,1,1,1,-3.6728361,.024774931,-.65172631,-.89598203,.043032654,.019099917
0,78,1,1,1,178,1,1,1,1,-3.6501577,.025328808,-.72087216,-.98736715,.049846642,.027262064
0,27,0,0,0,183,1,1,1,1,-2.4935689,.076310255,-1.3250179,-1.7818983,.058883686,.10984876
0,79,1,1,1,463,1,1,1,1,-3.6728361,.024774931,-.65172631,-.89598203,.043032654,.019099917
0,67,1,0,0,672,1,1,1,1,-3.4006975,.032273676,.69469565,.60815483,.030159049,.015007429
0,30,0,0,0,453,1,1,1,1,-2.5616035,.071650811,-.3845064,-.39558893,.046680178,.0072393739
0,53,0,0,0,725,1,1,1,1,-3.0832024,.04380548,.89720231,.79626429,.028662452,.023753298
0,27,0,0,0,529,1,1,1,1,-2.4935689,.076310255,-1.3250179,-1.7818983,.058883686,.10984876
0,60,0,0,0,119,1,1,1,1,-3.24195,.037617236,-.74741966,-1.0361489,.020424202,.01164759
0,30,0,0,0,67,1,1,1,1,-2.5616035,.071650811,-.3845064,-.39558893,.046680178,.0072393739
0,73,1,1,0,652,1,1,1,1,-3.5367668,.028284017,-.84061849,-1.1488338,.052603658,.039235767
0,21,0,0,0,157,1,1,1,1,-2.3574996,.086471505,-1.2355903,-1.6471859,.069978096,.114873
0,53,0,0,0,551,1,1,1,1,-3.0832024,.04380548,.89720231,.79626429,.028662452,.023753298
0,28,0,0,0,368,1,1,1,1,-2.516247,.074727021,.88140464,.78405893,.040860284,.033095594
1,35,0,0,0,28,1,1,1,1,-2.6749945,.064465091,3.2965474,2.5487189,.034024067,.3827706
0,64,0,0,0,699,1,1,1,1,-3.3326628,.034467503,.38739118,.35740265,.033868484,.0052608876
0,68,1,0,0,606,1,1,1,1,-3.4233756,.031572852,2.0640984,1.5713472,.033162519,.14613518
0,40,0,0,0,53,1,1,1,1,-2.7883856,.05795503,.078573674,.076881409,.019460255,.00012252858
0,64,0,0,0,304,1,1,1,1,-3.3326628,.034467503,.38739118,.35740265,.033868484,.0052608876
1,22,0,0,0,35,1,1,1,1,-2.3801777,.084696777,.50694144,.46319354,.073555008,.020403665
0,34,0,0,0,763,1,1,1,1,-2.6523163,.065846384,-.39323047,-.40711185,.038186379,.0061392016
0,65,1,0,0,219,1,1,1,1,-3.355341,.033720702,2.0517354,1.5692018,.028097693,.12170004
0,41,0,0,0,215,1,1,1,1,-2.8110638,.056729227,-1.1653094,-1.6030232,.025659703,.035762135
0,78,1,1,1,95,1,1,1,1,-3.6501577,.025328808,-.72087216,-.98736715,.049846642,.027262064
0,45,0,0,0,419,1,1,1,1,-2.9017768,.052065805,.2565752,.24445529,.015789011,.0010560781
0,80,1,1,1,788,1,1,1,1,-3.6955142,.024232864,-.45072705,-.626499,.022039518,.0045783399
